PPtr<GameObject> m_GameObject
	int m_FileID = 0
	SInt64 m_PathID = 0
UInt8 m_Enabled = 1
PPtr<MonoScript> m_Script
	int m_FileID = 0
	SInt64 m_PathID = -5495060101407549287
string m_Name = "HenshinData"
vector m_ignoreMonsters
	Array Array
	int size = 6
		[0]
		int data = 144
		[1]
		int data = 145
		[2]
		int data = 146
		[3]
		int data = 150
		[4]
		int data = 151
		[5]
		int data = 132
