PPtr<GameObject> m_GameObject
	int m_FileID = 0
	SInt64 m_PathID = 0
UInt8 m_Enabled = 1
PPtr<MonoScript> m_Script
	int m_FileID = 0
	SInt64 m_PathID = -4675627853506091491
string m_Name = "HiramekiDataSet"
HiramekiData m_datas
	Array Array
	int size = 2
		[0]
		HiramekiData data
			int m_uniqSkillNum = 1
			int m_limitLevel = 15
			float m_probMax = 40
			float m_factor_A = 0.9
		[1]
		HiramekiData data
			int m_uniqSkillNum = 2
			int m_limitLevel = 30
			float m_probMax = 25
			float m_factor_A = 0.9
