PPtr<GameObject> m_GameObject
	int m_FileID = 0
	SInt64 m_PathID = 0
UInt8 m_Enabled = 1
PPtr<MonoScript> m_Script
	int m_FileID = 0
	SInt64 m_PathID = 7508823954726310389
string m_Name = "PotentialPropertyNumSet"
PropertyNum m_datas
	Array Array
	int size = 4
		[0]
		PropertyNum data
			int m_num = 1
			int m_weightMin = 100
			int m_weightMedian = 100
			int m_weightMax = 100
		[1]
		PropertyNum data
			int m_num = 2
			int m_weightMin = 40
			int m_weightMedian = 45
			int m_weightMax = 50
		[2]
		PropertyNum data
			int m_num = 3
			int m_weightMin = 10
			int m_weightMedian = 12
			int m_weightMax = 15
		[3]
		PropertyNum data
			int m_num = 4
			int m_weightMin = 5
			int m_weightMedian = 6
			int m_weightMax = 7
