PPtr<GameObject> m_GameObject
	int m_FileID = 0
	SInt64 m_PathID = 0
UInt8 m_Enabled = 1
PPtr<MonoScript> m_Script
	int m_FileID = 0
	SInt64 m_PathID = -2861987273977051946
string m_Name = "EvolveDataSet"
EvolutionData m_datas
	Array Array
	int size = 151
		[0]
		EvolutionData data
			int m_monsterNo = 1
			vector m_nextMonsterNos
				Array Array
				int size = 8
					[0]
					int data = 2
					[1]
					int data = 0
					[2]
					int data = 0
					[3]
					int data = 0
					[4]
					int data = 0
					[5]
					int data = 0
					[6]
					int data = 0
					[7]
					int data = 0
			int m_evolveLevel = 16
		[1]
		EvolutionData data
			int m_monsterNo = 2
			vector m_nextMonsterNos
				Array Array
				int size = 8
					[0]
					int data = 3
					[1]
					int data = 0
					[2]
					int data = 0
					[3]
					int data = 0
					[4]
					int data = 0
					[5]
					int data = 0
					[6]
					int data = 0
					[7]
					int data = 0
			int m_evolveLevel = 32
		[2]
		EvolutionData data
			int m_monsterNo = 3
			vector m_nextMonsterNos
				Array Array
				int size = 8
					[0]
					int data = 0
					[1]
					int data = 0
					[2]
					int data = 0
					[3]
					int data = 0
					[4]
					int data = 0
					[5]
					int data = 0
					[6]
					int data = 0
					[7]
					int data = 0
			int m_evolveLevel = 10
		[3]
		EvolutionData data
			int m_monsterNo = 4
			vector m_nextMonsterNos
				Array Array
				int size = 8
					[0]
					int data = 5
					[1]
					int data = 0
					[2]
					int data = 0
					[3]
					int data = 0
					[4]
					int data = 0
					[5]
					int data = 0
					[6]
					int data = 0
					[7]
					int data = 0
			int m_evolveLevel = 16
		[4]
		EvolutionData data
			int m_monsterNo = 5
			vector m_nextMonsterNos
				Array Array
				int size = 8
					[0]
					int data = 6
					[1]
					int data = 0
					[2]
					int data = 0
					[3]
					int data = 0
					[4]
					int data = 0
					[5]
					int data = 0
					[6]
					int data = 0
					[7]
					int data = 0
			int m_evolveLevel = 36
		[5]
		EvolutionData data
			int m_monsterNo = 6
			vector m_nextMonsterNos
				Array Array
				int size = 8
					[0]
					int data = 0
					[1]
					int data = 0
					[2]
					int data = 0
					[3]
					int data = 0
					[4]
					int data = 0
					[5]
					int data = 0
					[6]
					int data = 0
					[7]
					int data = 0
			int m_evolveLevel = 10
		[6]
		EvolutionData data
			int m_monsterNo = 7
			vector m_nextMonsterNos
				Array Array
				int size = 8
					[0]
					int data = 8
					[1]
					int data = 0
					[2]
					int data = 0
					[3]
					int data = 0
					[4]
					int data = 0
					[5]
					int data = 0
					[6]
					int data = 0
					[7]
					int data = 0
			int m_evolveLevel = 16
		[7]
		EvolutionData data
			int m_monsterNo = 8
			vector m_nextMonsterNos
				Array Array
				int size = 8
					[0]
					int data = 9
					[1]
					int data = 0
					[2]
					int data = 0
					[3]
					int data = 0
					[4]
					int data = 0
					[5]
					int data = 0
					[6]
					int data = 0
					[7]
					int data = 0
			int m_evolveLevel = 36
		[8]
		EvolutionData data
			int m_monsterNo = 9
			vector m_nextMonsterNos
				Array Array
				int size = 8
					[0]
					int data = 0
					[1]
					int data = 0
					[2]
					int data = 0
					[3]
					int data = 0
					[4]
					int data = 0
					[5]
					int data = 0
					[6]
					int data = 0
					[7]
					int data = 0
			int m_evolveLevel = 10
		[9]
		EvolutionData data
			int m_monsterNo = 10
			vector m_nextMonsterNos
				Array Array
				int size = 8
					[0]
					int data = 11
					[1]
					int data = 0
					[2]
					int data = 0
					[3]
					int data = 0
					[4]
					int data = 0
					[5]
					int data = 0
					[6]
					int data = 0
					[7]
					int data = 0
			int m_evolveLevel = 7
		[10]
		EvolutionData data
			int m_monsterNo = 11
			vector m_nextMonsterNos
				Array Array
				int size = 8
					[0]
					int data = 12
					[1]
					int data = 0
					[2]
					int data = 0
					[3]
					int data = 0
					[4]
					int data = 0
					[5]
					int data = 0
					[6]
					int data = 0
					[7]
					int data = 0
			int m_evolveLevel = 10
		[11]
		EvolutionData data
			int m_monsterNo = 12
			vector m_nextMonsterNos
				Array Array
				int size = 8
					[0]
					int data = 0
					[1]
					int data = 0
					[2]
					int data = 0
					[3]
					int data = 0
					[4]
					int data = 0
					[5]
					int data = 0
					[6]
					int data = 0
					[7]
					int data = 0
			int m_evolveLevel = 10
		[12]
		EvolutionData data
			int m_monsterNo = 13
			vector m_nextMonsterNos
				Array Array
				int size = 8
					[0]
					int data = 14
					[1]
					int data = 0
					[2]
					int data = 0
					[3]
					int data = 0
					[4]
					int data = 0
					[5]
					int data = 0
					[6]
					int data = 0
					[7]
					int data = 0
			int m_evolveLevel = 7
		[13]
		EvolutionData data
			int m_monsterNo = 14
			vector m_nextMonsterNos
				Array Array
				int size = 8
					[0]
					int data = 15
					[1]
					int data = 0
					[2]
					int data = 0
					[3]
					int data = 0
					[4]
					int data = 0
					[5]
					int data = 0
					[6]
					int data = 0
					[7]
					int data = 0
			int m_evolveLevel = 10
		[14]
		EvolutionData data
			int m_monsterNo = 15
			vector m_nextMonsterNos
				Array Array
				int size = 8
					[0]
					int data = 0
					[1]
					int data = 0
					[2]
					int data = 0
					[3]
					int data = 0
					[4]
					int data = 0
					[5]
					int data = 0
					[6]
					int data = 0
					[7]
					int data = 0
			int m_evolveLevel = 10
		[15]
		EvolutionData data
			int m_monsterNo = 16
			vector m_nextMonsterNos
				Array Array
				int size = 8
					[0]
					int data = 17
					[1]
					int data = 0
					[2]
					int data = 0
					[3]
					int data = 0
					[4]
					int data = 0
					[5]
					int data = 0
					[6]
					int data = 0
					[7]
					int data = 0
			int m_evolveLevel = 18
		[16]
		EvolutionData data
			int m_monsterNo = 17
			vector m_nextMonsterNos
				Array Array
				int size = 8
					[0]
					int data = 18
					[1]
					int data = 0
					[2]
					int data = 0
					[3]
					int data = 0
					[4]
					int data = 0
					[5]
					int data = 0
					[6]
					int data = 0
					[7]
					int data = 0
			int m_evolveLevel = 36
		[17]
		EvolutionData data
			int m_monsterNo = 18
			vector m_nextMonsterNos
				Array Array
				int size = 8
					[0]
					int data = 0
					[1]
					int data = 0
					[2]
					int data = 0
					[3]
					int data = 0
					[4]
					int data = 0
					[5]
					int data = 0
					[6]
					int data = 0
					[7]
					int data = 0
			int m_evolveLevel = 10
		[18]
		EvolutionData data
			int m_monsterNo = 19
			vector m_nextMonsterNos
				Array Array
				int size = 8
					[0]
					int data = 20
					[1]
					int data = 0
					[2]
					int data = 0
					[3]
					int data = 0
					[4]
					int data = 0
					[5]
					int data = 0
					[6]
					int data = 0
					[7]
					int data = 0
			int m_evolveLevel = 20
		[19]
		EvolutionData data
			int m_monsterNo = 20
			vector m_nextMonsterNos
				Array Array
				int size = 8
					[0]
					int data = 0
					[1]
					int data = 0
					[2]
					int data = 0
					[3]
					int data = 0
					[4]
					int data = 0
					[5]
					int data = 0
					[6]
					int data = 0
					[7]
					int data = 0
			int m_evolveLevel = 10
		[20]
		EvolutionData data
			int m_monsterNo = 21
			vector m_nextMonsterNos
				Array Array
				int size = 8
					[0]
					int data = 22
					[1]
					int data = 0
					[2]
					int data = 0
					[3]
					int data = 0
					[4]
					int data = 0
					[5]
					int data = 0
					[6]
					int data = 0
					[7]
					int data = 0
			int m_evolveLevel = 20
		[21]
		EvolutionData data
			int m_monsterNo = 22
			vector m_nextMonsterNos
				Array Array
				int size = 8
					[0]
					int data = 0
					[1]
					int data = 0
					[2]
					int data = 0
					[3]
					int data = 0
					[4]
					int data = 0
					[5]
					int data = 0
					[6]
					int data = 0
					[7]
					int data = 0
			int m_evolveLevel = 10
		[22]
		EvolutionData data
			int m_monsterNo = 23
			vector m_nextMonsterNos
				Array Array
				int size = 8
					[0]
					int data = 24
					[1]
					int data = 0
					[2]
					int data = 0
					[3]
					int data = 0
					[4]
					int data = 0
					[5]
					int data = 0
					[6]
					int data = 0
					[7]
					int data = 0
			int m_evolveLevel = 22
		[23]
		EvolutionData data
			int m_monsterNo = 24
			vector m_nextMonsterNos
				Array Array
				int size = 8
					[0]
					int data = 0
					[1]
					int data = 0
					[2]
					int data = 0
					[3]
					int data = 0
					[4]
					int data = 0
					[5]
					int data = 0
					[6]
					int data = 0
					[7]
					int data = 0
			int m_evolveLevel = 10
		[24]
		EvolutionData data
			int m_monsterNo = 25
			vector m_nextMonsterNos
				Array Array
				int size = 8
					[0]
					int data = 26
					[1]
					int data = 0
					[2]
					int data = 0
					[3]
					int data = 0
					[4]
					int data = 0
					[5]
					int data = 0
					[6]
					int data = 0
					[7]
					int data = 0
			int m_evolveLevel = 22
		[25]
		EvolutionData data
			int m_monsterNo = 26
			vector m_nextMonsterNos
				Array Array
				int size = 8
					[0]
					int data = 0
					[1]
					int data = 0
					[2]
					int data = 0
					[3]
					int data = 0
					[4]
					int data = 0
					[5]
					int data = 0
					[6]
					int data = 0
					[7]
					int data = 0
			int m_evolveLevel = 10
		[26]
		EvolutionData data
			int m_monsterNo = 27
			vector m_nextMonsterNos
				Array Array
				int size = 8
					[0]
					int data = 28
					[1]
					int data = 0
					[2]
					int data = 0
					[3]
					int data = 0
					[4]
					int data = 0
					[5]
					int data = 0
					[6]
					int data = 0
					[7]
					int data = 0
			int m_evolveLevel = 16
		[27]
		EvolutionData data
			int m_monsterNo = 28
			vector m_nextMonsterNos
				Array Array
				int size = 8
					[0]
					int data = 0
					[1]
					int data = 0
					[2]
					int data = 0
					[3]
					int data = 0
					[4]
					int data = 0
					[5]
					int data = 0
					[6]
					int data = 0
					[7]
					int data = 0
			int m_evolveLevel = 10
		[28]
		EvolutionData data
			int m_monsterNo = 29
			vector m_nextMonsterNos
				Array Array
				int size = 8
					[0]
					int data = 30
					[1]
					int data = 0
					[2]
					int data = 0
					[3]
					int data = 0
					[4]
					int data = 0
					[5]
					int data = 0
					[6]
					int data = 0
					[7]
					int data = 0
			int m_evolveLevel = 16
		[29]
		EvolutionData data
			int m_monsterNo = 30
			vector m_nextMonsterNos
				Array Array
				int size = 8
					[0]
					int data = 31
					[1]
					int data = 0
					[2]
					int data = 0
					[3]
					int data = 0
					[4]
					int data = 0
					[5]
					int data = 0
					[6]
					int data = 0
					[7]
					int data = 0
			int m_evolveLevel = 36
		[30]
		EvolutionData data
			int m_monsterNo = 31
			vector m_nextMonsterNos
				Array Array
				int size = 8
					[0]
					int data = 0
					[1]
					int data = 0
					[2]
					int data = 0
					[3]
					int data = 0
					[4]
					int data = 0
					[5]
					int data = 0
					[6]
					int data = 0
					[7]
					int data = 0
			int m_evolveLevel = 10
		[31]
		EvolutionData data
			int m_monsterNo = 32
			vector m_nextMonsterNos
				Array Array
				int size = 8
					[0]
					int data = 33
					[1]
					int data = 0
					[2]
					int data = 0
					[3]
					int data = 0
					[4]
					int data = 0
					[5]
					int data = 0
					[6]
					int data = 0
					[7]
					int data = 0
			int m_evolveLevel = 16
		[32]
		EvolutionData data
			int m_monsterNo = 33
			vector m_nextMonsterNos
				Array Array
				int size = 8
					[0]
					int data = 34
					[1]
					int data = 0
					[2]
					int data = 0
					[3]
					int data = 0
					[4]
					int data = 0
					[5]
					int data = 0
					[6]
					int data = 0
					[7]
					int data = 0
			int m_evolveLevel = 36
		[33]
		EvolutionData data
			int m_monsterNo = 34
			vector m_nextMonsterNos
				Array Array
				int size = 8
					[0]
					int data = 0
					[1]
					int data = 0
					[2]
					int data = 0
					[3]
					int data = 0
					[4]
					int data = 0
					[5]
					int data = 0
					[6]
					int data = 0
					[7]
					int data = 0
			int m_evolveLevel = 10
		[34]
		EvolutionData data
			int m_monsterNo = 35
			vector m_nextMonsterNos
				Array Array
				int size = 8
					[0]
					int data = 36
					[1]
					int data = 0
					[2]
					int data = 0
					[3]
					int data = 0
					[4]
					int data = 0
					[5]
					int data = 0
					[6]
					int data = 0
					[7]
					int data = 0
			int m_evolveLevel = 36
		[35]
		EvolutionData data
			int m_monsterNo = 36
			vector m_nextMonsterNos
				Array Array
				int size = 8
					[0]
					int data = 0
					[1]
					int data = 0
					[2]
					int data = 0
					[3]
					int data = 0
					[4]
					int data = 0
					[5]
					int data = 0
					[6]
					int data = 0
					[7]
					int data = 0
			int m_evolveLevel = 10
		[36]
		EvolutionData data
			int m_monsterNo = 37
			vector m_nextMonsterNos
				Array Array
				int size = 8
					[0]
					int data = 38
					[1]
					int data = 0
					[2]
					int data = 0
					[3]
					int data = 0
					[4]
					int data = 0
					[5]
					int data = 0
					[6]
					int data = 0
					[7]
					int data = 0
			int m_evolveLevel = 36
		[37]
		EvolutionData data
			int m_monsterNo = 38
			vector m_nextMonsterNos
				Array Array
				int size = 8
					[0]
					int data = 0
					[1]
					int data = 0
					[2]
					int data = 0
					[3]
					int data = 0
					[4]
					int data = 0
					[5]
					int data = 0
					[6]
					int data = 0
					[7]
					int data = 0
			int m_evolveLevel = 10
		[38]
		EvolutionData data
			int m_monsterNo = 39
			vector m_nextMonsterNos
				Array Array
				int size = 8
					[0]
					int data = 40
					[1]
					int data = 0
					[2]
					int data = 0
					[3]
					int data = 0
					[4]
					int data = 0
					[5]
					int data = 0
					[6]
					int data = 0
					[7]
					int data = 0
			int m_evolveLevel = 26
		[39]
		EvolutionData data
			int m_monsterNo = 40
			vector m_nextMonsterNos
				Array Array
				int size = 8
					[0]
					int data = 0
					[1]
					int data = 0
					[2]
					int data = 0
					[3]
					int data = 0
					[4]
					int data = 0
					[5]
					int data = 0
					[6]
					int data = 0
					[7]
					int data = 0
			int m_evolveLevel = 10
		[40]
		EvolutionData data
			int m_monsterNo = 41
			vector m_nextMonsterNos
				Array Array
				int size = 8
					[0]
					int data = 42
					[1]
					int data = 0
					[2]
					int data = 0
					[3]
					int data = 0
					[4]
					int data = 0
					[5]
					int data = 0
					[6]
					int data = 0
					[7]
					int data = 0
			int m_evolveLevel = 22
		[41]
		EvolutionData data
			int m_monsterNo = 42
			vector m_nextMonsterNos
				Array Array
				int size = 8
					[0]
					int data = 0
					[1]
					int data = 0
					[2]
					int data = 0
					[3]
					int data = 0
					[4]
					int data = 0
					[5]
					int data = 0
					[6]
					int data = 0
					[7]
					int data = 0
			int m_evolveLevel = 10
		[42]
		EvolutionData data
			int m_monsterNo = 43
			vector m_nextMonsterNos
				Array Array
				int size = 8
					[0]
					int data = 44
					[1]
					int data = 0
					[2]
					int data = 0
					[3]
					int data = 0
					[4]
					int data = 0
					[5]
					int data = 0
					[6]
					int data = 0
					[7]
					int data = 0
			int m_evolveLevel = 21
		[43]
		EvolutionData data
			int m_monsterNo = 44
			vector m_nextMonsterNos
				Array Array
				int size = 8
					[0]
					int data = 45
					[1]
					int data = 0
					[2]
					int data = 0
					[3]
					int data = 0
					[4]
					int data = 0
					[5]
					int data = 0
					[6]
					int data = 0
					[7]
					int data = 0
			int m_evolveLevel = 36
		[44]
		EvolutionData data
			int m_monsterNo = 45
			vector m_nextMonsterNos
				Array Array
				int size = 8
					[0]
					int data = 0
					[1]
					int data = 0
					[2]
					int data = 0
					[3]
					int data = 0
					[4]
					int data = 0
					[5]
					int data = 0
					[6]
					int data = 0
					[7]
					int data = 0
			int m_evolveLevel = 10
		[45]
		EvolutionData data
			int m_monsterNo = 46
			vector m_nextMonsterNos
				Array Array
				int size = 8
					[0]
					int data = 47
					[1]
					int data = 0
					[2]
					int data = 0
					[3]
					int data = 0
					[4]
					int data = 0
					[5]
					int data = 0
					[6]
					int data = 0
					[7]
					int data = 0
			int m_evolveLevel = 24
		[46]
		EvolutionData data
			int m_monsterNo = 47
			vector m_nextMonsterNos
				Array Array
				int size = 8
					[0]
					int data = 0
					[1]
					int data = 0
					[2]
					int data = 0
					[3]
					int data = 0
					[4]
					int data = 0
					[5]
					int data = 0
					[6]
					int data = 0
					[7]
					int data = 0
			int m_evolveLevel = 10
		[47]
		EvolutionData data
			int m_monsterNo = 48
			vector m_nextMonsterNos
				Array Array
				int size = 8
					[0]
					int data = 49
					[1]
					int data = 0
					[2]
					int data = 0
					[3]
					int data = 0
					[4]
					int data = 0
					[5]
					int data = 0
					[6]
					int data = 0
					[7]
					int data = 0
			int m_evolveLevel = 31
		[48]
		EvolutionData data
			int m_monsterNo = 49
			vector m_nextMonsterNos
				Array Array
				int size = 8
					[0]
					int data = 0
					[1]
					int data = 0
					[2]
					int data = 0
					[3]
					int data = 0
					[4]
					int data = 0
					[5]
					int data = 0
					[6]
					int data = 0
					[7]
					int data = 0
			int m_evolveLevel = 10
		[49]
		EvolutionData data
			int m_monsterNo = 50
			vector m_nextMonsterNos
				Array Array
				int size = 8
					[0]
					int data = 51
					[1]
					int data = 0
					[2]
					int data = 0
					[3]
					int data = 0
					[4]
					int data = 0
					[5]
					int data = 0
					[6]
					int data = 0
					[7]
					int data = 0
			int m_evolveLevel = 26
		[50]
		EvolutionData data
			int m_monsterNo = 51
			vector m_nextMonsterNos
				Array Array
				int size = 8
					[0]
					int data = 0
					[1]
					int data = 0
					[2]
					int data = 0
					[3]
					int data = 0
					[4]
					int data = 0
					[5]
					int data = 0
					[6]
					int data = 0
					[7]
					int data = 0
			int m_evolveLevel = 10
		[51]
		EvolutionData data
			int m_monsterNo = 52
			vector m_nextMonsterNos
				Array Array
				int size = 8
					[0]
					int data = 53
					[1]
					int data = 0
					[2]
					int data = 0
					[3]
					int data = 0
					[4]
					int data = 0
					[5]
					int data = 0
					[6]
					int data = 0
					[7]
					int data = 0
			int m_evolveLevel = 28
		[52]
		EvolutionData data
			int m_monsterNo = 53
			vector m_nextMonsterNos
				Array Array
				int size = 8
					[0]
					int data = 0
					[1]
					int data = 0
					[2]
					int data = 0
					[3]
					int data = 0
					[4]
					int data = 0
					[5]
					int data = 0
					[6]
					int data = 0
					[7]
					int data = 0
			int m_evolveLevel = 10
		[53]
		EvolutionData data
			int m_monsterNo = 54
			vector m_nextMonsterNos
				Array Array
				int size = 8
					[0]
					int data = 55
					[1]
					int data = 0
					[2]
					int data = 0
					[3]
					int data = 0
					[4]
					int data = 0
					[5]
					int data = 0
					[6]
					int data = 0
					[7]
					int data = 0
			int m_evolveLevel = 33
		[54]
		EvolutionData data
			int m_monsterNo = 55
			vector m_nextMonsterNos
				Array Array
				int size = 8
					[0]
					int data = 0
					[1]
					int data = 0
					[2]
					int data = 0
					[3]
					int data = 0
					[4]
					int data = 0
					[5]
					int data = 0
					[6]
					int data = 0
					[7]
					int data = 0
			int m_evolveLevel = 10
		[55]
		EvolutionData data
			int m_monsterNo = 56
			vector m_nextMonsterNos
				Array Array
				int size = 8
					[0]
					int data = 57
					[1]
					int data = 0
					[2]
					int data = 0
					[3]
					int data = 0
					[4]
					int data = 0
					[5]
					int data = 0
					[6]
					int data = 0
					[7]
					int data = 0
			int m_evolveLevel = 28
		[56]
		EvolutionData data
			int m_monsterNo = 57
			vector m_nextMonsterNos
				Array Array
				int size = 8
					[0]
					int data = 0
					[1]
					int data = 0
					[2]
					int data = 0
					[3]
					int data = 0
					[4]
					int data = 0
					[5]
					int data = 0
					[6]
					int data = 0
					[7]
					int data = 0
			int m_evolveLevel = 10
		[57]
		EvolutionData data
			int m_monsterNo = 58
			vector m_nextMonsterNos
				Array Array
				int size = 8
					[0]
					int data = 59
					[1]
					int data = 0
					[2]
					int data = 0
					[3]
					int data = 0
					[4]
					int data = 0
					[5]
					int data = 0
					[6]
					int data = 0
					[7]
					int data = 0
			int m_evolveLevel = 36
		[58]
		EvolutionData data
			int m_monsterNo = 59
			vector m_nextMonsterNos
				Array Array
				int size = 8
					[0]
					int data = 0
					[1]
					int data = 0
					[2]
					int data = 0
					[3]
					int data = 0
					[4]
					int data = 0
					[5]
					int data = 0
					[6]
					int data = 0
					[7]
					int data = 0
			int m_evolveLevel = 10
		[59]
		EvolutionData data
			int m_monsterNo = 60
			vector m_nextMonsterNos
				Array Array
				int size = 8
					[0]
					int data = 61
					[1]
					int data = 0
					[2]
					int data = 0
					[3]
					int data = 0
					[4]
					int data = 0
					[5]
					int data = 0
					[6]
					int data = 0
					[7]
					int data = 0
			int m_evolveLevel = 25
		[60]
		EvolutionData data
			int m_monsterNo = 61
			vector m_nextMonsterNos
				Array Array
				int size = 8
					[0]
					int data = 62
					[1]
					int data = 0
					[2]
					int data = 0
					[3]
					int data = 0
					[4]
					int data = 0
					[5]
					int data = 0
					[6]
					int data = 0
					[7]
					int data = 0
			int m_evolveLevel = 36
		[61]
		EvolutionData data
			int m_monsterNo = 62
			vector m_nextMonsterNos
				Array Array
				int size = 8
					[0]
					int data = 0
					[1]
					int data = 0
					[2]
					int data = 0
					[3]
					int data = 0
					[4]
					int data = 0
					[5]
					int data = 0
					[6]
					int data = 0
					[7]
					int data = 0
			int m_evolveLevel = 10
		[62]
		EvolutionData data
			int m_monsterNo = 63
			vector m_nextMonsterNos
				Array Array
				int size = 8
					[0]
					int data = 64
					[1]
					int data = 0
					[2]
					int data = 0
					[3]
					int data = 0
					[4]
					int data = 0
					[5]
					int data = 0
					[6]
					int data = 0
					[7]
					int data = 0
			int m_evolveLevel = 16
		[63]
		EvolutionData data
			int m_monsterNo = 64
			vector m_nextMonsterNos
				Array Array
				int size = 8
					[0]
					int data = 65
					[1]
					int data = 0
					[2]
					int data = 0
					[3]
					int data = 0
					[4]
					int data = 0
					[5]
					int data = 0
					[6]
					int data = 0
					[7]
					int data = 0
			int m_evolveLevel = 36
		[64]
		EvolutionData data
			int m_monsterNo = 65
			vector m_nextMonsterNos
				Array Array
				int size = 8
					[0]
					int data = 0
					[1]
					int data = 0
					[2]
					int data = 0
					[3]
					int data = 0
					[4]
					int data = 0
					[5]
					int data = 0
					[6]
					int data = 0
					[7]
					int data = 0
			int m_evolveLevel = 10
		[65]
		EvolutionData data
			int m_monsterNo = 66
			vector m_nextMonsterNos
				Array Array
				int size = 8
					[0]
					int data = 67
					[1]
					int data = 0
					[2]
					int data = 0
					[3]
					int data = 0
					[4]
					int data = 0
					[5]
					int data = 0
					[6]
					int data = 0
					[7]
					int data = 0
			int m_evolveLevel = 28
		[66]
		EvolutionData data
			int m_monsterNo = 67
			vector m_nextMonsterNos
				Array Array
				int size = 8
					[0]
					int data = 68
					[1]
					int data = 0
					[2]
					int data = 0
					[3]
					int data = 0
					[4]
					int data = 0
					[5]
					int data = 0
					[6]
					int data = 0
					[7]
					int data = 0
			int m_evolveLevel = 36
		[67]
		EvolutionData data
			int m_monsterNo = 68
			vector m_nextMonsterNos
				Array Array
				int size = 8
					[0]
					int data = 0
					[1]
					int data = 0
					[2]
					int data = 0
					[3]
					int data = 0
					[4]
					int data = 0
					[5]
					int data = 0
					[6]
					int data = 0
					[7]
					int data = 0
			int m_evolveLevel = 10
		[68]
		EvolutionData data
			int m_monsterNo = 69
			vector m_nextMonsterNos
				Array Array
				int size = 8
					[0]
					int data = 70
					[1]
					int data = 0
					[2]
					int data = 0
					[3]
					int data = 0
					[4]
					int data = 0
					[5]
					int data = 0
					[6]
					int data = 0
					[7]
					int data = 0
			int m_evolveLevel = 21
		[69]
		EvolutionData data
			int m_monsterNo = 70
			vector m_nextMonsterNos
				Array Array
				int size = 8
					[0]
					int data = 71
					[1]
					int data = 0
					[2]
					int data = 0
					[3]
					int data = 0
					[4]
					int data = 0
					[5]
					int data = 0
					[6]
					int data = 0
					[7]
					int data = 0
			int m_evolveLevel = 36
		[70]
		EvolutionData data
			int m_monsterNo = 71
			vector m_nextMonsterNos
				Array Array
				int size = 8
					[0]
					int data = 0
					[1]
					int data = 0
					[2]
					int data = 0
					[3]
					int data = 0
					[4]
					int data = 0
					[5]
					int data = 0
					[6]
					int data = 0
					[7]
					int data = 0
			int m_evolveLevel = 10
		[71]
		EvolutionData data
			int m_monsterNo = 72
			vector m_nextMonsterNos
				Array Array
				int size = 8
					[0]
					int data = 73
					[1]
					int data = 0
					[2]
					int data = 0
					[3]
					int data = 0
					[4]
					int data = 0
					[5]
					int data = 0
					[6]
					int data = 0
					[7]
					int data = 0
			int m_evolveLevel = 30
		[72]
		EvolutionData data
			int m_monsterNo = 73
			vector m_nextMonsterNos
				Array Array
				int size = 8
					[0]
					int data = 0
					[1]
					int data = 0
					[2]
					int data = 0
					[3]
					int data = 0
					[4]
					int data = 0
					[5]
					int data = 0
					[6]
					int data = 0
					[7]
					int data = 0
			int m_evolveLevel = 10
		[73]
		EvolutionData data
			int m_monsterNo = 74
			vector m_nextMonsterNos
				Array Array
				int size = 8
					[0]
					int data = 75
					[1]
					int data = 0
					[2]
					int data = 0
					[3]
					int data = 0
					[4]
					int data = 0
					[5]
					int data = 0
					[6]
					int data = 0
					[7]
					int data = 0
			int m_evolveLevel = 25
		[74]
		EvolutionData data
			int m_monsterNo = 75
			vector m_nextMonsterNos
				Array Array
				int size = 8
					[0]
					int data = 76
					[1]
					int data = 0
					[2]
					int data = 0
					[3]
					int data = 0
					[4]
					int data = 0
					[5]
					int data = 0
					[6]
					int data = 0
					[7]
					int data = 0
			int m_evolveLevel = 36
		[75]
		EvolutionData data
			int m_monsterNo = 76
			vector m_nextMonsterNos
				Array Array
				int size = 8
					[0]
					int data = 0
					[1]
					int data = 0
					[2]
					int data = 0
					[3]
					int data = 0
					[4]
					int data = 0
					[5]
					int data = 0
					[6]
					int data = 0
					[7]
					int data = 0
			int m_evolveLevel = 10
		[76]
		EvolutionData data
			int m_monsterNo = 77
			vector m_nextMonsterNos
				Array Array
				int size = 8
					[0]
					int data = 78
					[1]
					int data = 0
					[2]
					int data = 0
					[3]
					int data = 0
					[4]
					int data = 0
					[5]
					int data = 0
					[6]
					int data = 0
					[7]
					int data = 0
			int m_evolveLevel = 40
		[77]
		EvolutionData data
			int m_monsterNo = 78
			vector m_nextMonsterNos
				Array Array
				int size = 8
					[0]
					int data = 0
					[1]
					int data = 0
					[2]
					int data = 0
					[3]
					int data = 0
					[4]
					int data = 0
					[5]
					int data = 0
					[6]
					int data = 0
					[7]
					int data = 0
			int m_evolveLevel = 10
		[78]
		EvolutionData data
			int m_monsterNo = 79
			vector m_nextMonsterNos
				Array Array
				int size = 8
					[0]
					int data = 80
					[1]
					int data = 0
					[2]
					int data = 0
					[3]
					int data = 0
					[4]
					int data = 0
					[5]
					int data = 0
					[6]
					int data = 0
					[7]
					int data = 0
			int m_evolveLevel = 37
		[79]
		EvolutionData data
			int m_monsterNo = 80
			vector m_nextMonsterNos
				Array Array
				int size = 8
					[0]
					int data = 0
					[1]
					int data = 0
					[2]
					int data = 0
					[3]
					int data = 0
					[4]
					int data = 0
					[5]
					int data = 0
					[6]
					int data = 0
					[7]
					int data = 0
			int m_evolveLevel = 10
		[80]
		EvolutionData data
			int m_monsterNo = 81
			vector m_nextMonsterNos
				Array Array
				int size = 8
					[0]
					int data = 82
					[1]
					int data = 0
					[2]
					int data = 0
					[3]
					int data = 0
					[4]
					int data = 0
					[5]
					int data = 0
					[6]
					int data = 0
					[7]
					int data = 0
			int m_evolveLevel = 30
		[81]
		EvolutionData data
			int m_monsterNo = 82
			vector m_nextMonsterNos
				Array Array
				int size = 8
					[0]
					int data = 0
					[1]
					int data = 0
					[2]
					int data = 0
					[3]
					int data = 0
					[4]
					int data = 0
					[5]
					int data = 0
					[6]
					int data = 0
					[7]
					int data = 0
			int m_evolveLevel = 10
		[82]
		EvolutionData data
			int m_monsterNo = 83
			vector m_nextMonsterNos
				Array Array
				int size = 8
					[0]
					int data = 0
					[1]
					int data = 0
					[2]
					int data = 0
					[3]
					int data = 0
					[4]
					int data = 0
					[5]
					int data = 0
					[6]
					int data = 0
					[7]
					int data = 0
			int m_evolveLevel = 10
		[83]
		EvolutionData data
			int m_monsterNo = 84
			vector m_nextMonsterNos
				Array Array
				int size = 8
					[0]
					int data = 85
					[1]
					int data = 0
					[2]
					int data = 0
					[3]
					int data = 0
					[4]
					int data = 0
					[5]
					int data = 0
					[6]
					int data = 0
					[7]
					int data = 0
			int m_evolveLevel = 31
		[84]
		EvolutionData data
			int m_monsterNo = 85
			vector m_nextMonsterNos
				Array Array
				int size = 8
					[0]
					int data = 0
					[1]
					int data = 0
					[2]
					int data = 0
					[3]
					int data = 0
					[4]
					int data = 0
					[5]
					int data = 0
					[6]
					int data = 0
					[7]
					int data = 0
			int m_evolveLevel = 10
		[85]
		EvolutionData data
			int m_monsterNo = 86
			vector m_nextMonsterNos
				Array Array
				int size = 8
					[0]
					int data = 87
					[1]
					int data = 0
					[2]
					int data = 0
					[3]
					int data = 0
					[4]
					int data = 0
					[5]
					int data = 0
					[6]
					int data = 0
					[7]
					int data = 0
			int m_evolveLevel = 34
		[86]
		EvolutionData data
			int m_monsterNo = 87
			vector m_nextMonsterNos
				Array Array
				int size = 8
					[0]
					int data = 0
					[1]
					int data = 0
					[2]
					int data = 0
					[3]
					int data = 0
					[4]
					int data = 0
					[5]
					int data = 0
					[6]
					int data = 0
					[7]
					int data = 0
			int m_evolveLevel = 10
		[87]
		EvolutionData data
			int m_monsterNo = 88
			vector m_nextMonsterNos
				Array Array
				int size = 8
					[0]
					int data = 89
					[1]
					int data = 0
					[2]
					int data = 0
					[3]
					int data = 0
					[4]
					int data = 0
					[5]
					int data = 0
					[6]
					int data = 0
					[7]
					int data = 0
			int m_evolveLevel = 38
		[88]
		EvolutionData data
			int m_monsterNo = 89
			vector m_nextMonsterNos
				Array Array
				int size = 8
					[0]
					int data = 0
					[1]
					int data = 0
					[2]
					int data = 0
					[3]
					int data = 0
					[4]
					int data = 0
					[5]
					int data = 0
					[6]
					int data = 0
					[7]
					int data = 0
			int m_evolveLevel = 10
		[89]
		EvolutionData data
			int m_monsterNo = 90
			vector m_nextMonsterNos
				Array Array
				int size = 8
					[0]
					int data = 91
					[1]
					int data = 0
					[2]
					int data = 0
					[3]
					int data = 0
					[4]
					int data = 0
					[5]
					int data = 0
					[6]
					int data = 0
					[7]
					int data = 0
			int m_evolveLevel = 36
		[90]
		EvolutionData data
			int m_monsterNo = 91
			vector m_nextMonsterNos
				Array Array
				int size = 8
					[0]
					int data = 0
					[1]
					int data = 0
					[2]
					int data = 0
					[3]
					int data = 0
					[4]
					int data = 0
					[5]
					int data = 0
					[6]
					int data = 0
					[7]
					int data = 0
			int m_evolveLevel = 10
		[91]
		EvolutionData data
			int m_monsterNo = 92
			vector m_nextMonsterNos
				Array Array
				int size = 8
					[0]
					int data = 93
					[1]
					int data = 0
					[2]
					int data = 0
					[3]
					int data = 0
					[4]
					int data = 0
					[5]
					int data = 0
					[6]
					int data = 0
					[7]
					int data = 0
			int m_evolveLevel = 25
		[92]
		EvolutionData data
			int m_monsterNo = 93
			vector m_nextMonsterNos
				Array Array
				int size = 8
					[0]
					int data = 94
					[1]
					int data = 0
					[2]
					int data = 0
					[3]
					int data = 0
					[4]
					int data = 0
					[5]
					int data = 0
					[6]
					int data = 0
					[7]
					int data = 0
			int m_evolveLevel = 36
		[93]
		EvolutionData data
			int m_monsterNo = 94
			vector m_nextMonsterNos
				Array Array
				int size = 8
					[0]
					int data = 0
					[1]
					int data = 0
					[2]
					int data = 0
					[3]
					int data = 0
					[4]
					int data = 0
					[5]
					int data = 0
					[6]
					int data = 0
					[7]
					int data = 0
			int m_evolveLevel = 10
		[94]
		EvolutionData data
			int m_monsterNo = 95
			vector m_nextMonsterNos
				Array Array
				int size = 8
					[0]
					int data = 0
					[1]
					int data = 0
					[2]
					int data = 0
					[3]
					int data = 0
					[4]
					int data = 0
					[5]
					int data = 0
					[6]
					int data = 0
					[7]
					int data = 0
			int m_evolveLevel = 10
		[95]
		EvolutionData data
			int m_monsterNo = 96
			vector m_nextMonsterNos
				Array Array
				int size = 8
					[0]
					int data = 97
					[1]
					int data = 0
					[2]
					int data = 0
					[3]
					int data = 0
					[4]
					int data = 0
					[5]
					int data = 0
					[6]
					int data = 0
					[7]
					int data = 0
			int m_evolveLevel = 26
		[96]
		EvolutionData data
			int m_monsterNo = 97
			vector m_nextMonsterNos
				Array Array
				int size = 8
					[0]
					int data = 0
					[1]
					int data = 0
					[2]
					int data = 0
					[3]
					int data = 0
					[4]
					int data = 0
					[5]
					int data = 0
					[6]
					int data = 0
					[7]
					int data = 0
			int m_evolveLevel = 10
		[97]
		EvolutionData data
			int m_monsterNo = 98
			vector m_nextMonsterNos
				Array Array
				int size = 8
					[0]
					int data = 99
					[1]
					int data = 0
					[2]
					int data = 0
					[3]
					int data = 0
					[4]
					int data = 0
					[5]
					int data = 0
					[6]
					int data = 0
					[7]
					int data = 0
			int m_evolveLevel = 28
		[98]
		EvolutionData data
			int m_monsterNo = 99
			vector m_nextMonsterNos
				Array Array
				int size = 8
					[0]
					int data = 0
					[1]
					int data = 0
					[2]
					int data = 0
					[3]
					int data = 0
					[4]
					int data = 0
					[5]
					int data = 0
					[6]
					int data = 0
					[7]
					int data = 0
			int m_evolveLevel = 10
		[99]
		EvolutionData data
			int m_monsterNo = 100
			vector m_nextMonsterNos
				Array Array
				int size = 8
					[0]
					int data = 101
					[1]
					int data = 0
					[2]
					int data = 0
					[3]
					int data = 0
					[4]
					int data = 0
					[5]
					int data = 0
					[6]
					int data = 0
					[7]
					int data = 0
			int m_evolveLevel = 30
		[100]
		EvolutionData data
			int m_monsterNo = 101
			vector m_nextMonsterNos
				Array Array
				int size = 8
					[0]
					int data = 0
					[1]
					int data = 0
					[2]
					int data = 0
					[3]
					int data = 0
					[4]
					int data = 0
					[5]
					int data = 0
					[6]
					int data = 0
					[7]
					int data = 0
			int m_evolveLevel = 10
		[101]
		EvolutionData data
			int m_monsterNo = 102
			vector m_nextMonsterNos
				Array Array
				int size = 8
					[0]
					int data = 103
					[1]
					int data = 0
					[2]
					int data = 0
					[3]
					int data = 0
					[4]
					int data = 0
					[5]
					int data = 0
					[6]
					int data = 0
					[7]
					int data = 0
			int m_evolveLevel = 36
		[102]
		EvolutionData data
			int m_monsterNo = 103
			vector m_nextMonsterNos
				Array Array
				int size = 8
					[0]
					int data = 0
					[1]
					int data = 0
					[2]
					int data = 0
					[3]
					int data = 0
					[4]
					int data = 0
					[5]
					int data = 0
					[6]
					int data = 0
					[7]
					int data = 0
			int m_evolveLevel = 10
		[103]
		EvolutionData data
			int m_monsterNo = 104
			vector m_nextMonsterNos
				Array Array
				int size = 8
					[0]
					int data = 105
					[1]
					int data = 0
					[2]
					int data = 0
					[3]
					int data = 0
					[4]
					int data = 0
					[5]
					int data = 0
					[6]
					int data = 0
					[7]
					int data = 0
			int m_evolveLevel = 28
		[104]
		EvolutionData data
			int m_monsterNo = 105
			vector m_nextMonsterNos
				Array Array
				int size = 8
					[0]
					int data = 0
					[1]
					int data = 0
					[2]
					int data = 0
					[3]
					int data = 0
					[4]
					int data = 0
					[5]
					int data = 0
					[6]
					int data = 0
					[7]
					int data = 0
			int m_evolveLevel = 10
		[105]
		EvolutionData data
			int m_monsterNo = 106
			vector m_nextMonsterNos
				Array Array
				int size = 8
					[0]
					int data = 0
					[1]
					int data = 0
					[2]
					int data = 0
					[3]
					int data = 0
					[4]
					int data = 0
					[5]
					int data = 0
					[6]
					int data = 0
					[7]
					int data = 0
			int m_evolveLevel = 10
		[106]
		EvolutionData data
			int m_monsterNo = 107
			vector m_nextMonsterNos
				Array Array
				int size = 8
					[0]
					int data = 0
					[1]
					int data = 0
					[2]
					int data = 0
					[3]
					int data = 0
					[4]
					int data = 0
					[5]
					int data = 0
					[6]
					int data = 0
					[7]
					int data = 0
			int m_evolveLevel = 10
		[107]
		EvolutionData data
			int m_monsterNo = 108
			vector m_nextMonsterNos
				Array Array
				int size = 8
					[0]
					int data = 0
					[1]
					int data = 0
					[2]
					int data = 0
					[3]
					int data = 0
					[4]
					int data = 0
					[5]
					int data = 0
					[6]
					int data = 0
					[7]
					int data = 0
			int m_evolveLevel = 10
		[108]
		EvolutionData data
			int m_monsterNo = 109
			vector m_nextMonsterNos
				Array Array
				int size = 8
					[0]
					int data = 110
					[1]
					int data = 0
					[2]
					int data = 0
					[3]
					int data = 0
					[4]
					int data = 0
					[5]
					int data = 0
					[6]
					int data = 0
					[7]
					int data = 0
			int m_evolveLevel = 35
		[109]
		EvolutionData data
			int m_monsterNo = 110
			vector m_nextMonsterNos
				Array Array
				int size = 8
					[0]
					int data = 0
					[1]
					int data = 0
					[2]
					int data = 0
					[3]
					int data = 0
					[4]
					int data = 0
					[5]
					int data = 0
					[6]
					int data = 0
					[7]
					int data = 0
			int m_evolveLevel = 10
		[110]
		EvolutionData data
			int m_monsterNo = 111
			vector m_nextMonsterNos
				Array Array
				int size = 8
					[0]
					int data = 112
					[1]
					int data = 0
					[2]
					int data = 0
					[3]
					int data = 0
					[4]
					int data = 0
					[5]
					int data = 0
					[6]
					int data = 0
					[7]
					int data = 0
			int m_evolveLevel = 42
		[111]
		EvolutionData data
			int m_monsterNo = 112
			vector m_nextMonsterNos
				Array Array
				int size = 8
					[0]
					int data = 0
					[1]
					int data = 0
					[2]
					int data = 0
					[3]
					int data = 0
					[4]
					int data = 0
					[5]
					int data = 0
					[6]
					int data = 0
					[7]
					int data = 0
			int m_evolveLevel = 10
		[112]
		EvolutionData data
			int m_monsterNo = 113
			vector m_nextMonsterNos
				Array Array
				int size = 8
					[0]
					int data = 0
					[1]
					int data = 0
					[2]
					int data = 0
					[3]
					int data = 0
					[4]
					int data = 0
					[5]
					int data = 0
					[6]
					int data = 0
					[7]
					int data = 0
			int m_evolveLevel = 10
		[113]
		EvolutionData data
			int m_monsterNo = 114
			vector m_nextMonsterNos
				Array Array
				int size = 8
					[0]
					int data = 0
					[1]
					int data = 0
					[2]
					int data = 0
					[3]
					int data = 0
					[4]
					int data = 0
					[5]
					int data = 0
					[6]
					int data = 0
					[7]
					int data = 0
			int m_evolveLevel = 10
		[114]
		EvolutionData data
			int m_monsterNo = 115
			vector m_nextMonsterNos
				Array Array
				int size = 8
					[0]
					int data = 0
					[1]
					int data = 0
					[2]
					int data = 0
					[3]
					int data = 0
					[4]
					int data = 0
					[5]
					int data = 0
					[6]
					int data = 0
					[7]
					int data = 0
			int m_evolveLevel = 10
		[115]
		EvolutionData data
			int m_monsterNo = 116
			vector m_nextMonsterNos
				Array Array
				int size = 8
					[0]
					int data = 117
					[1]
					int data = 0
					[2]
					int data = 0
					[3]
					int data = 0
					[4]
					int data = 0
					[5]
					int data = 0
					[6]
					int data = 0
					[7]
					int data = 0
			int m_evolveLevel = 32
		[116]
		EvolutionData data
			int m_monsterNo = 117
			vector m_nextMonsterNos
				Array Array
				int size = 8
					[0]
					int data = 0
					[1]
					int data = 0
					[2]
					int data = 0
					[3]
					int data = 0
					[4]
					int data = 0
					[5]
					int data = 0
					[6]
					int data = 0
					[7]
					int data = 0
			int m_evolveLevel = 10
		[117]
		EvolutionData data
			int m_monsterNo = 118
			vector m_nextMonsterNos
				Array Array
				int size = 8
					[0]
					int data = 119
					[1]
					int data = 0
					[2]
					int data = 0
					[3]
					int data = 0
					[4]
					int data = 0
					[5]
					int data = 0
					[6]
					int data = 0
					[7]
					int data = 0
			int m_evolveLevel = 33
		[118]
		EvolutionData data
			int m_monsterNo = 119
			vector m_nextMonsterNos
				Array Array
				int size = 8
					[0]
					int data = 0
					[1]
					int data = 0
					[2]
					int data = 0
					[3]
					int data = 0
					[4]
					int data = 0
					[5]
					int data = 0
					[6]
					int data = 0
					[7]
					int data = 0
			int m_evolveLevel = 10
		[119]
		EvolutionData data
			int m_monsterNo = 120
			vector m_nextMonsterNos
				Array Array
				int size = 8
					[0]
					int data = 121
					[1]
					int data = 0
					[2]
					int data = 0
					[3]
					int data = 0
					[4]
					int data = 0
					[5]
					int data = 0
					[6]
					int data = 0
					[7]
					int data = 0
			int m_evolveLevel = 36
		[120]
		EvolutionData data
			int m_monsterNo = 121
			vector m_nextMonsterNos
				Array Array
				int size = 8
					[0]
					int data = 0
					[1]
					int data = 0
					[2]
					int data = 0
					[3]
					int data = 0
					[4]
					int data = 0
					[5]
					int data = 0
					[6]
					int data = 0
					[7]
					int data = 0
			int m_evolveLevel = 10
		[121]
		EvolutionData data
			int m_monsterNo = 122
			vector m_nextMonsterNos
				Array Array
				int size = 8
					[0]
					int data = 0
					[1]
					int data = 0
					[2]
					int data = 0
					[3]
					int data = 0
					[4]
					int data = 0
					[5]
					int data = 0
					[6]
					int data = 0
					[7]
					int data = 0
			int m_evolveLevel = 10
		[122]
		EvolutionData data
			int m_monsterNo = 123
			vector m_nextMonsterNos
				Array Array
				int size = 8
					[0]
					int data = 0
					[1]
					int data = 0
					[2]
					int data = 0
					[3]
					int data = 0
					[4]
					int data = 0
					[5]
					int data = 0
					[6]
					int data = 0
					[7]
					int data = 0
			int m_evolveLevel = 10
		[123]
		EvolutionData data
			int m_monsterNo = 124
			vector m_nextMonsterNos
				Array Array
				int size = 8
					[0]
					int data = 0
					[1]
					int data = 0
					[2]
					int data = 0
					[3]
					int data = 0
					[4]
					int data = 0
					[5]
					int data = 0
					[6]
					int data = 0
					[7]
					int data = 0
			int m_evolveLevel = 10
		[124]
		EvolutionData data
			int m_monsterNo = 125
			vector m_nextMonsterNos
				Array Array
				int size = 8
					[0]
					int data = 0
					[1]
					int data = 0
					[2]
					int data = 0
					[3]
					int data = 0
					[4]
					int data = 0
					[5]
					int data = 0
					[6]
					int data = 0
					[7]
					int data = 0
			int m_evolveLevel = 10
		[125]
		EvolutionData data
			int m_monsterNo = 126
			vector m_nextMonsterNos
				Array Array
				int size = 8
					[0]
					int data = 0
					[1]
					int data = 0
					[2]
					int data = 0
					[3]
					int data = 0
					[4]
					int data = 0
					[5]
					int data = 0
					[6]
					int data = 0
					[7]
					int data = 0
			int m_evolveLevel = 10
		[126]
		EvolutionData data
			int m_monsterNo = 127
			vector m_nextMonsterNos
				Array Array
				int size = 8
					[0]
					int data = 0
					[1]
					int data = 0
					[2]
					int data = 0
					[3]
					int data = 0
					[4]
					int data = 0
					[5]
					int data = 0
					[6]
					int data = 0
					[7]
					int data = 0
			int m_evolveLevel = 10
		[127]
		EvolutionData data
			int m_monsterNo = 128
			vector m_nextMonsterNos
				Array Array
				int size = 8
					[0]
					int data = 0
					[1]
					int data = 0
					[2]
					int data = 0
					[3]
					int data = 0
					[4]
					int data = 0
					[5]
					int data = 0
					[6]
					int data = 0
					[7]
					int data = 0
			int m_evolveLevel = 10
		[128]
		EvolutionData data
			int m_monsterNo = 129
			vector m_nextMonsterNos
				Array Array
				int size = 8
					[0]
					int data = 130
					[1]
					int data = 0
					[2]
					int data = 0
					[3]
					int data = 0
					[4]
					int data = 0
					[5]
					int data = 0
					[6]
					int data = 0
					[7]
					int data = 0
			int m_evolveLevel = 20
		[129]
		EvolutionData data
			int m_monsterNo = 130
			vector m_nextMonsterNos
				Array Array
				int size = 8
					[0]
					int data = 0
					[1]
					int data = 0
					[2]
					int data = 0
					[3]
					int data = 0
					[4]
					int data = 0
					[5]
					int data = 0
					[6]
					int data = 0
					[7]
					int data = 0
			int m_evolveLevel = 10
		[130]
		EvolutionData data
			int m_monsterNo = 131
			vector m_nextMonsterNos
				Array Array
				int size = 8
					[0]
					int data = 0
					[1]
					int data = 0
					[2]
					int data = 0
					[3]
					int data = 0
					[4]
					int data = 0
					[5]
					int data = 0
					[6]
					int data = 0
					[7]
					int data = 0
			int m_evolveLevel = 10
		[131]
		EvolutionData data
			int m_monsterNo = 132
			vector m_nextMonsterNos
				Array Array
				int size = 8
					[0]
					int data = 0
					[1]
					int data = 0
					[2]
					int data = 0
					[3]
					int data = 0
					[4]
					int data = 0
					[5]
					int data = 0
					[6]
					int data = 0
					[7]
					int data = 0
			int m_evolveLevel = 10
		[132]
		EvolutionData data
			int m_monsterNo = 133
			vector m_nextMonsterNos
				Array Array
				int size = 8
					[0]
					int data = 134
					[1]
					int data = 135
					[2]
					int data = 136
					[3]
					int data = 0
					[4]
					int data = 0
					[5]
					int data = 0
					[6]
					int data = 0
					[7]
					int data = 0
			int m_evolveLevel = 36
		[133]
		EvolutionData data
			int m_monsterNo = 134
			vector m_nextMonsterNos
				Array Array
				int size = 8
					[0]
					int data = 0
					[1]
					int data = 0
					[2]
					int data = 0
					[3]
					int data = 0
					[4]
					int data = 0
					[5]
					int data = 0
					[6]
					int data = 0
					[7]
					int data = 0
			int m_evolveLevel = 10
		[134]
		EvolutionData data
			int m_monsterNo = 135
			vector m_nextMonsterNos
				Array Array
				int size = 8
					[0]
					int data = 0
					[1]
					int data = 0
					[2]
					int data = 0
					[3]
					int data = 0
					[4]
					int data = 0
					[5]
					int data = 0
					[6]
					int data = 0
					[7]
					int data = 0
			int m_evolveLevel = 10
		[135]
		EvolutionData data
			int m_monsterNo = 136
			vector m_nextMonsterNos
				Array Array
				int size = 8
					[0]
					int data = 0
					[1]
					int data = 0
					[2]
					int data = 0
					[3]
					int data = 0
					[4]
					int data = 0
					[5]
					int data = 0
					[6]
					int data = 0
					[7]
					int data = 0
			int m_evolveLevel = 10
		[136]
		EvolutionData data
			int m_monsterNo = 137
			vector m_nextMonsterNos
				Array Array
				int size = 8
					[0]
					int data = 0
					[1]
					int data = 0
					[2]
					int data = 0
					[3]
					int data = 0
					[4]
					int data = 0
					[5]
					int data = 0
					[6]
					int data = 0
					[7]
					int data = 0
			int m_evolveLevel = 10
		[137]
		EvolutionData data
			int m_monsterNo = 138
			vector m_nextMonsterNos
				Array Array
				int size = 8
					[0]
					int data = 139
					[1]
					int data = 0
					[2]
					int data = 0
					[3]
					int data = 0
					[4]
					int data = 0
					[5]
					int data = 0
					[6]
					int data = 0
					[7]
					int data = 0
			int m_evolveLevel = 40
		[138]
		EvolutionData data
			int m_monsterNo = 139
			vector m_nextMonsterNos
				Array Array
				int size = 8
					[0]
					int data = 0
					[1]
					int data = 0
					[2]
					int data = 0
					[3]
					int data = 0
					[4]
					int data = 0
					[5]
					int data = 0
					[6]
					int data = 0
					[7]
					int data = 0
			int m_evolveLevel = 10
		[139]
		EvolutionData data
			int m_monsterNo = 140
			vector m_nextMonsterNos
				Array Array
				int size = 8
					[0]
					int data = 141
					[1]
					int data = 0
					[2]
					int data = 0
					[3]
					int data = 0
					[4]
					int data = 0
					[5]
					int data = 0
					[6]
					int data = 0
					[7]
					int data = 0
			int m_evolveLevel = 40
		[140]
		EvolutionData data
			int m_monsterNo = 141
			vector m_nextMonsterNos
				Array Array
				int size = 8
					[0]
					int data = 0
					[1]
					int data = 0
					[2]
					int data = 0
					[3]
					int data = 0
					[4]
					int data = 0
					[5]
					int data = 0
					[6]
					int data = 0
					[7]
					int data = 0
			int m_evolveLevel = 10
		[141]
		EvolutionData data
			int m_monsterNo = 142
			vector m_nextMonsterNos
				Array Array
				int size = 8
					[0]
					int data = 0
					[1]
					int data = 0
					[2]
					int data = 0
					[3]
					int data = 0
					[4]
					int data = 0
					[5]
					int data = 0
					[6]
					int data = 0
					[7]
					int data = 0
			int m_evolveLevel = 10
		[142]
		EvolutionData data
			int m_monsterNo = 143
			vector m_nextMonsterNos
				Array Array
				int size = 8
					[0]
					int data = 0
					[1]
					int data = 0
					[2]
					int data = 0
					[3]
					int data = 0
					[4]
					int data = 0
					[5]
					int data = 0
					[6]
					int data = 0
					[7]
					int data = 0
			int m_evolveLevel = 10
		[143]
		EvolutionData data
			int m_monsterNo = 144
			vector m_nextMonsterNos
				Array Array
				int size = 8
					[0]
					int data = 0
					[1]
					int data = 0
					[2]
					int data = 0
					[3]
					int data = 0
					[4]
					int data = 0
					[5]
					int data = 0
					[6]
					int data = 0
					[7]
					int data = 0
			int m_evolveLevel = 10
		[144]
		EvolutionData data
			int m_monsterNo = 145
			vector m_nextMonsterNos
				Array Array
				int size = 8
					[0]
					int data = 0
					[1]
					int data = 0
					[2]
					int data = 0
					[3]
					int data = 0
					[4]
					int data = 0
					[5]
					int data = 0
					[6]
					int data = 0
					[7]
					int data = 0
			int m_evolveLevel = 10
		[145]
		EvolutionData data
			int m_monsterNo = 146
			vector m_nextMonsterNos
				Array Array
				int size = 8
					[0]
					int data = 0
					[1]
					int data = 0
					[2]
					int data = 0
					[3]
					int data = 0
					[4]
					int data = 0
					[5]
					int data = 0
					[6]
					int data = 0
					[7]
					int data = 0
			int m_evolveLevel = 10
		[146]
		EvolutionData data
			int m_monsterNo = 147
			vector m_nextMonsterNos
				Array Array
				int size = 8
					[0]
					int data = 148
					[1]
					int data = 0
					[2]
					int data = 0
					[3]
					int data = 0
					[4]
					int data = 0
					[5]
					int data = 0
					[6]
					int data = 0
					[7]
					int data = 0
			int m_evolveLevel = 30
		[147]
		EvolutionData data
			int m_monsterNo = 148
			vector m_nextMonsterNos
				Array Array
				int size = 8
					[0]
					int data = 149
					[1]
					int data = 0
					[2]
					int data = 0
					[3]
					int data = 0
					[4]
					int data = 0
					[5]
					int data = 0
					[6]
					int data = 0
					[7]
					int data = 0
			int m_evolveLevel = 55
		[148]
		EvolutionData data
			int m_monsterNo = 149
			vector m_nextMonsterNos
				Array Array
				int size = 8
					[0]
					int data = 0
					[1]
					int data = 0
					[2]
					int data = 0
					[3]
					int data = 0
					[4]
					int data = 0
					[5]
					int data = 0
					[6]
					int data = 0
					[7]
					int data = 0
			int m_evolveLevel = 10
		[149]
		EvolutionData data
			int m_monsterNo = 150
			vector m_nextMonsterNos
				Array Array
				int size = 8
					[0]
					int data = 0
					[1]
					int data = 0
					[2]
					int data = 0
					[3]
					int data = 0
					[4]
					int data = 0
					[5]
					int data = 0
					[6]
					int data = 0
					[7]
					int data = 0
			int m_evolveLevel = 10
		[150]
		EvolutionData data
			int m_monsterNo = 151
			vector m_nextMonsterNos
				Array Array
				int size = 8
					[0]
					int data = 0
					[1]
					int data = 0
					[2]
					int data = 0
					[3]
					int data = 0
					[4]
					int data = 0
					[5]
					int data = 0
					[6]
					int data = 0
					[7]
					int data = 0
			int m_evolveLevel = 10
