PPtr<GameObject> m_GameObject
	int m_FileID = 0
	SInt64 m_PathID = 0
UInt8 m_Enabled = 1
PPtr<MonoScript> m_Script
	int m_FileID = 0
	SInt64 m_PathID = 6020890831017957640
string m_Name = "EvolveGroupDataSet"
vector m_monsterGroupIDs
	Array Array
	int size = 151
		[0]
		int data = 0
		[1]
		int data = 0
		[2]
		int data = 0
		[3]
		int data = 1
		[4]
		int data = 1
		[5]
		int data = 1
		[6]
		int data = 2
		[7]
		int data = 2
		[8]
		int data = 2
		[9]
		int data = 3
		[10]
		int data = 3
		[11]
		int data = 3
		[12]
		int data = 4
		[13]
		int data = 4
		[14]
		int data = 4
		[15]
		int data = 5
		[16]
		int data = 5
		[17]
		int data = 5
		[18]
		int data = 6
		[19]
		int data = 6
		[20]
		int data = 7
		[21]
		int data = 7
		[22]
		int data = 8
		[23]
		int data = 8
		[24]
		int data = 9
		[25]
		int data = 9
		[26]
		int data = 10
		[27]
		int data = 10
		[28]
		int data = 11
		[29]
		int data = 11
		[30]
		int data = 11
		[31]
		int data = 12
		[32]
		int data = 12
		[33]
		int data = 12
		[34]
		int data = 13
		[35]
		int data = 13
		[36]
		int data = 14
		[37]
		int data = 14
		[38]
		int data = 15
		[39]
		int data = 15
		[40]
		int data = 16
		[41]
		int data = 16
		[42]
		int data = 17
		[43]
		int data = 17
		[44]
		int data = 17
		[45]
		int data = 18
		[46]
		int data = 18
		[47]
		int data = 19
		[48]
		int data = 19
		[49]
		int data = 20
		[50]
		int data = 20
		[51]
		int data = 21
		[52]
		int data = 21
		[53]
		int data = 22
		[54]
		int data = 22
		[55]
		int data = 23
		[56]
		int data = 23
		[57]
		int data = 24
		[58]
		int data = 24
		[59]
		int data = 25
		[60]
		int data = 25
		[61]
		int data = 25
		[62]
		int data = 26
		[63]
		int data = 26
		[64]
		int data = 26
		[65]
		int data = 27
		[66]
		int data = 27
		[67]
		int data = 27
		[68]
		int data = 28
		[69]
		int data = 28
		[70]
		int data = 28
		[71]
		int data = 29
		[72]
		int data = 29
		[73]
		int data = 30
		[74]
		int data = 30
		[75]
		int data = 30
		[76]
		int data = 31
		[77]
		int data = 31
		[78]
		int data = 32
		[79]
		int data = 32
		[80]
		int data = 33
		[81]
		int data = 33
		[82]
		int data = 34
		[83]
		int data = 35
		[84]
		int data = 35
		[85]
		int data = 36
		[86]
		int data = 36
		[87]
		int data = 37
		[88]
		int data = 37
		[89]
		int data = 38
		[90]
		int data = 38
		[91]
		int data = 39
		[92]
		int data = 39
		[93]
		int data = 39
		[94]
		int data = 40
		[95]
		int data = 41
		[96]
		int data = 41
		[97]
		int data = 42
		[98]
		int data = 42
		[99]
		int data = 43
		[100]
		int data = 43
		[101]
		int data = 44
		[102]
		int data = 44
		[103]
		int data = 45
		[104]
		int data = 45
		[105]
		int data = 46
		[106]
		int data = 47
		[107]
		int data = 48
		[108]
		int data = 49
		[109]
		int data = 49
		[110]
		int data = 50
		[111]
		int data = 50
		[112]
		int data = 51
		[113]
		int data = 52
		[114]
		int data = 53
		[115]
		int data = 54
		[116]
		int data = 54
		[117]
		int data = 55
		[118]
		int data = 55
		[119]
		int data = 56
		[120]
		int data = 56
		[121]
		int data = 57
		[122]
		int data = 58
		[123]
		int data = 59
		[124]
		int data = 60
		[125]
		int data = 61
		[126]
		int data = 62
		[127]
		int data = 63
		[128]
		int data = 64
		[129]
		int data = 64
		[130]
		int data = 65
		[131]
		int data = 66
		[132]
		int data = 67
		[133]
		int data = 67
		[134]
		int data = 67
		[135]
		int data = 67
		[136]
		int data = 68
		[137]
		int data = 69
		[138]
		int data = 69
		[139]
		int data = 70
		[140]
		int data = 70
		[141]
		int data = 71
		[142]
		int data = 72
		[143]
		int data = 73
		[144]
		int data = 74
		[145]
		int data = 75
		[146]
		int data = 76
		[147]
		int data = 76
		[148]
		int data = 76
		[149]
		int data = 77
		[150]
		int data = 78
