PPtr<GameObject> m_GameObject
	int m_FileID = 0
	SInt64 m_PathID = 0
UInt8 m_Enabled = 1
PPtr<MonoScript> m_Script
	int m_FileID = 0
	SInt64 m_PathID = -3831783949476102493
string m_Name = "PersonalityDataSet"
PersonalityData m_datas
	Array Array
	int size = 25
		[0]
		PersonalityData data
			int m_seikaku = 0
			int m_groupType = 2
		[1]
		PersonalityData data
			int m_seikaku = 1
			int m_groupType = 2
		[2]
		PersonalityData data
			int m_seikaku = 2
			int m_groupType = 3
		[3]
		PersonalityData data
			int m_seikaku = 3
			int m_groupType = 3
		[4]
		PersonalityData data
			int m_seikaku = 4
			int m_groupType = 1
		[5]
		PersonalityData data
			int m_seikaku = 5
			int m_groupType = 3
		[6]
		PersonalityData data
			int m_seikaku = 6
			int m_groupType = 3
		[7]
		PersonalityData data
			int m_seikaku = 7
			int m_groupType = 2
		[8]
		PersonalityData data
			int m_seikaku = 8
			int m_groupType = 1
		[9]
		PersonalityData data
			int m_seikaku = 9
			int m_groupType = 2
		[10]
		PersonalityData data
			int m_seikaku = 10
			int m_groupType = 2
		[11]
		PersonalityData data
			int m_seikaku = 11
			int m_groupType = 1
		[12]
		PersonalityData data
			int m_seikaku = 12
			int m_groupType = 3
		[13]
		PersonalityData data
			int m_seikaku = 13
			int m_groupType = 1
		[14]
		PersonalityData data
			int m_seikaku = 14
			int m_groupType = 1
		[15]
		PersonalityData data
			int m_seikaku = 15
			int m_groupType = 2
		[16]
		PersonalityData data
			int m_seikaku = 16
			int m_groupType = 2
		[17]
		PersonalityData data
			int m_seikaku = 17
			int m_groupType = 3
		[18]
		PersonalityData data
			int m_seikaku = 18
			int m_groupType = 2
		[19]
		PersonalityData data
			int m_seikaku = 19
			int m_groupType = 1
		[20]
		PersonalityData data
			int m_seikaku = 20
			int m_groupType = 2
		[21]
		PersonalityData data
			int m_seikaku = 21
			int m_groupType = 2
		[22]
		PersonalityData data
			int m_seikaku = 22
			int m_groupType = 1
		[23]
		PersonalityData data
			int m_seikaku = 23
			int m_groupType = 3
		[24]
		PersonalityData data
			int m_seikaku = 24
			int m_groupType = 1
