PPtr<GameObject> m_GameObject
	int m_FileID = 0
	SInt64 m_PathID = 0
UInt8 m_Enabled = 1
PPtr<MonoScript> m_Script
	int m_FileID = 0
	SInt64 m_PathID = -6260728323127545935
string m_Name = "MapData_special2_000"
PPtr<$MapChipSet> m_mapChipSet
	int m_FileID = 1
	SInt64 m_PathID = 8891843460005660953
ManageData m_mapChips
	Array Array
	int size = 9
		[0]
		ManageData data
			PPtr<$GameObject> mapChip
				int m_FileID = 1
				SInt64 m_PathID = 5744815610628205720
			int rotation = 0
		[1]
		ManageData data
			PPtr<$GameObject> mapChip
				int m_FileID = 1
				SInt64 m_PathID = 7858947429722234177
			int rotation = 0
		[2]
		ManageData data
			PPtr<$GameObject> mapChip
				int m_FileID = 1
				SInt64 m_PathID = 7862288145738937632
			int rotation = 0
		[3]
		ManageData data
			PPtr<$GameObject> mapChip
				int m_FileID = 1
				SInt64 m_PathID = 8182821467654176565
			int rotation = 0
		[4]
		ManageData data
			PPtr<$GameObject> mapChip
				int m_FileID = 1
				SInt64 m_PathID = 902060985754424678
			int rotation = 0
		[5]
		ManageData data
			PPtr<$GameObject> mapChip
				int m_FileID = 1
				SInt64 m_PathID = 8182821467654176565
			int rotation = 3
		[6]
		ManageData data
			PPtr<$GameObject> mapChip
				int m_FileID = 1
				SInt64 m_PathID = -3926124848585065495
			int rotation = 4
		[7]
		ManageData data
			PPtr<$GameObject> mapChip
				int m_FileID = 1
				SInt64 m_PathID = -2623458084648364111
			int rotation = 0
		[8]
		ManageData data
			PPtr<$GameObject> mapChip
				int m_FileID = 1
				SInt64 m_PathID = -3926124848585065495
			int rotation = 4
int m_bossMapChipIndex = 1
int m_playerMapChipIndex = 7
