PPtr<GameObject> m_GameObject
	int m_FileID = 0
	SInt64 m_PathID = 0
UInt8 m_Enabled = 1
PPtr<MonoScript> m_Script
	int m_FileID = 0
	SInt64 m_PathID = -6260728323127545935
string m_Name = "MapData_extra1_020"
PPtr<$MapChipSet> m_mapChipSet
	int m_FileID = 1
	SInt64 m_PathID = 8891843460005660953
ManageData m_mapChips
	Array Array
	int size = 9
		[0]
		ManageData data
			PPtr<$GameObject> mapChip
				int m_FileID = 1
				SInt64 m_PathID = 8182821467654176565
			int rotation = 2
		[1]
		ManageData data
			PPtr<$GameObject> mapChip
				int m_FileID = 0
				SInt64 m_PathID = 5190635547581484054
			int rotation = 2
		[2]
		ManageData data
			PPtr<$GameObject> mapChip
				int m_FileID = 1
				SInt64 m_PathID = 8182821467654176565
			int rotation = 1
		[3]
		ManageData data
			PPtr<$GameObject> mapChip
				int m_FileID = 0
				SInt64 m_PathID = 5190635547581484054
			int rotation = 0
		[4]
		ManageData data
			PPtr<$GameObject> mapChip
				int m_FileID = 0
				SInt64 m_PathID = -669456084146578021
			int rotation = 4
		[5]
		ManageData data
			PPtr<$GameObject> mapChip
				int m_FileID = 0
				SInt64 m_PathID = 5190635547581484054
			int rotation = 1
		[6]
		ManageData data
			PPtr<$GameObject> mapChip
				int m_FileID = 1
				SInt64 m_PathID = 8182821467654176565
			int rotation = 0
		[7]
		ManageData data
			PPtr<$GameObject> mapChip
				int m_FileID = 0
				SInt64 m_PathID = 5190635547581484054
			int rotation = 3
		[8]
		ManageData data
			PPtr<$GameObject> mapChip
				int m_FileID = 1
				SInt64 m_PathID = 8182821467654176565
			int rotation = 3
int m_bossMapChipIndex = -1
int m_playerMapChipIndex = -1
