PPtr<GameObject> m_GameObject
	int m_FileID = 0
	SInt64 m_PathID = 0
UInt8 m_Enabled = 1
PPtr<MonoScript> m_Script
	int m_FileID = 0
	SInt64 m_PathID = -6260728323127545935
string m_Name = "MapData_extra1_017"
PPtr<$MapChipSet> m_mapChipSet
	int m_FileID = 0
	SInt64 m_PathID = 2722027735088856977
ManageData m_mapChips
	Array Array
	int size = 9
		[0]
		ManageData data
			PPtr<$GameObject> mapChip
				int m_FileID = 0
				SInt64 m_PathID = 0
			int rotation = 4
		[1]
		ManageData data
			PPtr<$GameObject> mapChip
				int m_FileID = 4
				SInt64 m_PathID = 1858668189392403817
			int rotation = 4
		[2]
		ManageData data
			PPtr<$GameObject> mapChip
				int m_FileID = 0
				SInt64 m_PathID = 0
			int rotation = 4
		[3]
		ManageData data
			PPtr<$GameObject> mapChip
				int m_FileID = 0
				SInt64 m_PathID = 0
			int rotation = 4
		[4]
		ManageData data
			PPtr<$GameObject> mapChip
				int m_FileID = 4
				SInt64 m_PathID = 1858668189392403817
			int rotation = 4
		[5]
		ManageData data
			PPtr<$GameObject> mapChip
				int m_FileID = 4
				SInt64 m_PathID = -6633479949238073581
			int rotation = 4
		[6]
		ManageData data
			PPtr<$GameObject> mapChip
				int m_FileID = 0
				SInt64 m_PathID = 0
			int rotation = 4
		[7]
		ManageData data
			PPtr<$GameObject> mapChip
				int m_FileID = 4
				SInt64 m_PathID = 5649011172315538733
			int rotation = 4
		[8]
		ManageData data
			PPtr<$GameObject> mapChip
				int m_FileID = 0
				SInt64 m_PathID = 0
			int rotation = 4
int m_bossMapChipIndex = -1
int m_playerMapChipIndex = -1
