PPtr<GameObject> m_GameObject
	int m_FileID = 0
	SInt64 m_PathID = 0
UInt8 m_Enabled = 1
PPtr<MonoScript> m_Script
	int m_FileID = 0
	SInt64 m_PathID = -1124877939772276516
string m_Name = "IntroSeq_GoPokemon"
PPtr<$Transform> m_gotoPoint
	int m_FileID = 0
	SInt64 m_PathID = -7812274743958540879
