PPtr<GameObject> m_GameObject
	int m_FileID = 0
	SInt64 m_PathID = 0
UInt8 m_Enabled = 1
PPtr<MonoScript> m_Script
	int m_FileID = 0
	SInt64 m_PathID = 2810551784331520216
string m_Name = "PokemonVolumeSet"
PokemonVolume m_volume
	Array Array
	int size = 152
		[0]
		PokemonVolume data
			Vector3f m_colliderCenter
				float x = 1
				float y = 1
				float z = 1
			float m_colliderRadius = 1
			float m_navMeshAgentRadius = 1
			float m_navMeshAgentHeight = 1
			Vector3f m_shadowScale
				float x = 1
				float y = 1
				float z = 1
			Vector3f m_shadowCenter
				float x = 0
				float y = 0
				float z = 0
		[1]
		PokemonVolume data
			Vector3f m_colliderCenter
				float x = 0
				float y = 1.2
				float z = 0
			float m_colliderRadius = 1.2
			float m_navMeshAgentRadius = 1.2
			float m_navMeshAgentHeight = 1.7
			Vector3f m_shadowScale
				float x = 1.4
				float y = 1
				float z = 1.5
			Vector3f m_shadowCenter
				float x = 0
				float y = 0
				float z = -0.122
		[2]
		PokemonVolume data
			Vector3f m_colliderCenter
				float x = 0
				float y = 1.4
				float z = 0
			float m_colliderRadius = 1.4
			float m_navMeshAgentRadius = 1.4
			float m_navMeshAgentHeight = 2.2
			Vector3f m_shadowScale
				float x = 1.6
				float y = 1
				float z = 1.9
			Vector3f m_shadowCenter
				float x = 0
				float y = 0
				float z = -0.09
		[3]
		PokemonVolume data
			Vector3f m_colliderCenter
				float x = 0
				float y = 2.2
				float z = 0
			float m_colliderRadius = 2.2
			float m_navMeshAgentRadius = 2.2
			float m_navMeshAgentHeight = 2.7
			Vector3f m_shadowScale
				float x = 3.8
				float y = 1
				float z = 3.1
			Vector3f m_shadowCenter
				float x = 0
				float y = 0
				float z = 0
		[4]
		PokemonVolume data
			Vector3f m_colliderCenter
				float x = 0
				float y = 0.8
				float z = 0
			float m_colliderRadius = 0.8
			float m_navMeshAgentRadius = 0.8
			float m_navMeshAgentHeight = 2
			Vector3f m_shadowScale
				float x = 1.1
				float y = 1
				float z = 0.9
			Vector3f m_shadowCenter
				float x = 0
				float y = 0
				float z = -0.018
		[5]
		PokemonVolume data
			Vector3f m_colliderCenter
				float x = 0
				float y = 1.1
				float z = 0
			float m_colliderRadius = 1.1
			float m_navMeshAgentRadius = 1.1
			float m_navMeshAgentHeight = 2.5
			Vector3f m_shadowScale
				float x = 1.5
				float y = 1
				float z = 1.1
			Vector3f m_shadowCenter
				float x = 0
				float y = 0
				float z = -0.018
		[6]
		PokemonVolume data
			Vector3f m_colliderCenter
				float x = 0
				float y = 2.4
				float z = 0
			float m_colliderRadius = 2.4
			float m_navMeshAgentRadius = 2.4
			float m_navMeshAgentHeight = 4.6
			Vector3f m_shadowScale
				float x = 2.4
				float y = 1
				float z = 1.8
			Vector3f m_shadowCenter
				float x = 0
				float y = 0
				float z = -0.08
		[7]
		PokemonVolume data
			Vector3f m_colliderCenter
				float x = 0
				float y = 0.9
				float z = 0
			float m_colliderRadius = 0.9
			float m_navMeshAgentRadius = 0.9
			float m_navMeshAgentHeight = 1.9
			Vector3f m_shadowScale
				float x = 1.1
				float y = 1
				float z = 1
			Vector3f m_shadowCenter
				float x = 0
				float y = 0
				float z = -0.02
		[8]
		PokemonVolume data
			Vector3f m_colliderCenter
				float x = 0
				float y = 1.2
				float z = 0
			float m_colliderRadius = 1.2
			float m_navMeshAgentRadius = 1.2
			float m_navMeshAgentHeight = 2.3
			Vector3f m_shadowScale
				float x = 1.5
				float y = 1
				float z = 1.3
			Vector3f m_shadowCenter
				float x = 0
				float y = 0
				float z = 0.02
		[9]
		PokemonVolume data
			Vector3f m_colliderCenter
				float x = 0
				float y = 1.8
				float z = 0
			float m_colliderRadius = 1.8
			float m_navMeshAgentRadius = 1.8
			float m_navMeshAgentHeight = 3.3
			Vector3f m_shadowScale
				float x = 2.8
				float y = 1
				float z = 2.3
			Vector3f m_shadowCenter
				float x = 0
				float y = 0
				float z = 0.03
		[10]
		PokemonVolume data
			Vector3f m_colliderCenter
				float x = 0
				float y = 0.8
				float z = 0
			float m_colliderRadius = 0.8
			float m_navMeshAgentRadius = 0.8
			float m_navMeshAgentHeight = 1.7
			Vector3f m_shadowScale
				float x = 0.9
				float y = 1
				float z = 1
			Vector3f m_shadowCenter
				float x = 0
				float y = 0
				float z = -0.222
		[11]
		PokemonVolume data
			Vector3f m_colliderCenter
				float x = 0
				float y = 0.8
				float z = 0
			float m_colliderRadius = 0.8
			float m_navMeshAgentRadius = 0.8
			float m_navMeshAgentHeight = 1.8
			Vector3f m_shadowScale
				float x = 0.9
				float y = 1
				float z = 1.45
			Vector3f m_shadowCenter
				float x = 0
				float y = 0
				float z = 0.024
		[12]
		PokemonVolume data
			Vector3f m_colliderCenter
				float x = 0
				float y = 1.7
				float z = 0
			float m_colliderRadius = 1.7
			float m_navMeshAgentRadius = 1.7
			float m_navMeshAgentHeight = 3
			Vector3f m_shadowScale
				float x = 1.7
				float y = 1
				float z = 1
			Vector3f m_shadowCenter
				float x = 0
				float y = 0
				float z = 0.09
		[13]
		PokemonVolume data
			Vector3f m_colliderCenter
				float x = 0
				float y = 0.8
				float z = 0
			float m_colliderRadius = 0.8
			float m_navMeshAgentRadius = 0.8
			float m_navMeshAgentHeight = 1.9
			Vector3f m_shadowScale
				float x = 0.9
				float y = 1
				float z = 1
			Vector3f m_shadowCenter
				float x = 0
				float y = 0
				float z = -0.127
		[14]
		PokemonVolume data
			Vector3f m_colliderCenter
				float x = 0
				float y = 0.7
				float z = 0
			float m_colliderRadius = 0.7
			float m_navMeshAgentRadius = 0.7
			float m_navMeshAgentHeight = 1.8
			Vector3f m_shadowScale
				float x = 1
				float y = 1
				float z = 0.9
			Vector3f m_shadowCenter
				float x = 0
				float y = 0
				float z = -0.054
		[15]
		PokemonVolume data
			Vector3f m_colliderCenter
				float x = 0
				float y = 1.2
				float z = 0
			float m_colliderRadius = 1.2
			float m_navMeshAgentRadius = 1.2
			float m_navMeshAgentHeight = 3.1
			Vector3f m_shadowScale
				float x = 1.2
				float y = 1
				float z = 1.3
			Vector3f m_shadowCenter
				float x = 0
				float y = 0
				float z = 0.054
		[16]
		PokemonVolume data
			Vector3f m_colliderCenter
				float x = 0
				float y = 1.5
				float z = 0
			float m_colliderRadius = 1.5
			float m_navMeshAgentRadius = 1.5
			float m_navMeshAgentHeight = 2.5
			Vector3f m_shadowScale
				float x = 1.4
				float y = 1
				float z = 1.2
			Vector3f m_shadowCenter
				float x = 0
				float y = 0
				float z = -0.23
		[17]
		PokemonVolume data
			Vector3f m_colliderCenter
				float x = 0
				float y = 2
				float z = 0
			float m_colliderRadius = 2
			float m_navMeshAgentRadius = 2
			float m_navMeshAgentHeight = 2.9
			Vector3f m_shadowScale
				float x = 1.8
				float y = 1
				float z = 1.6
			Vector3f m_shadowCenter
				float x = 0
				float y = 0
				float z = -0.18
		[18]
		PokemonVolume data
			Vector3f m_colliderCenter
				float x = 0
				float y = 2.5
				float z = 0
			float m_colliderRadius = 2.5
			float m_navMeshAgentRadius = 2.5
			float m_navMeshAgentHeight = 3.2
			Vector3f m_shadowScale
				float x = 2.2
				float y = 1
				float z = 2.1
			Vector3f m_shadowCenter
				float x = 0
				float y = 0
				float z = 0.03
		[19]
		PokemonVolume data
			Vector3f m_colliderCenter
				float x = 0
				float y = 1.1
				float z = 0
			float m_colliderRadius = 1.1
			float m_navMeshAgentRadius = 1.1
			float m_navMeshAgentHeight = 1.6
			Vector3f m_shadowScale
				float x = 1.2
				float y = 1
				float z = 1.8
			Vector3f m_shadowCenter
				float x = 0
				float y = 0
				float z = -0.1
		[20]
		PokemonVolume data
			Vector3f m_colliderCenter
				float x = 0
				float y = 1.4
				float z = 0
			float m_colliderRadius = 1.4
			float m_navMeshAgentRadius = 1.4
			float m_navMeshAgentHeight = 2.5
			Vector3f m_shadowScale
				float x = 1.8
				float y = 1
				float z = 1.7
			Vector3f m_shadowCenter
				float x = 0
				float y = 0
				float z = 0.21
		[21]
		PokemonVolume data
			Vector3f m_colliderCenter
				float x = 0
				float y = 1.4
				float z = 0
			float m_colliderRadius = 1.4
			float m_navMeshAgentRadius = 1.4
			float m_navMeshAgentHeight = 2.5
			Vector3f m_shadowScale
				float x = 1.2
				float y = 1
				float z = 0.9
			Vector3f m_shadowCenter
				float x = 0
				float y = 0
				float z = -0.17
		[22]
		PokemonVolume data
			Vector3f m_colliderCenter
				float x = 0
				float y = 2.1
				float z = 0
			float m_colliderRadius = 2.1
			float m_navMeshAgentRadius = 2.1
			float m_navMeshAgentHeight = 2.5
			Vector3f m_shadowScale
				float x = 1.8
				float y = 1
				float z = 1.4
			Vector3f m_shadowCenter
				float x = 0
				float y = 0
				float z = -0.44
		[23]
		PokemonVolume data
			Vector3f m_colliderCenter
				float x = 0
				float y = 1.2
				float z = 0
			float m_colliderRadius = 1.2
			float m_navMeshAgentRadius = 1.2
			float m_navMeshAgentHeight = 1.9
			Vector3f m_shadowScale
				float x = 2
				float y = 1
				float z = 2
			Vector3f m_shadowCenter
				float x = 0
				float y = 0
				float z = 0
		[24]
		PokemonVolume data
			Vector3f m_colliderCenter
				float x = 0
				float y = 1.6
				float z = 0
			float m_colliderRadius = 1.6
			float m_navMeshAgentRadius = 1.6
			float m_navMeshAgentHeight = 2.9
			Vector3f m_shadowScale
				float x = 2.3
				float y = 1
				float z = 1.7
			Vector3f m_shadowCenter
				float x = 0
				float y = 0
				float z = -0.02
		[25]
		PokemonVolume data
			Vector3f m_colliderCenter
				float x = 0
				float y = 1
				float z = 0
			float m_colliderRadius = 1
			float m_navMeshAgentRadius = 1
			float m_navMeshAgentHeight = 1.6
			Vector3f m_shadowScale
				float x = 1.1
				float y = 1
				float z = 1.4
			Vector3f m_shadowCenter
				float x = 0
				float y = 0
				float z = -0.096
		[26]
		PokemonVolume data
			Vector3f m_colliderCenter
				float x = 0
				float y = 1.3
				float z = 0
			float m_colliderRadius = 1.3
			float m_navMeshAgentRadius = 1.3
			float m_navMeshAgentHeight = 2.3
			Vector3f m_shadowScale
				float x = 1.7
				float y = 1
				float z = 1.4
			Vector3f m_shadowCenter
				float x = 0
				float y = 0
				float z = -0.02
		[27]
		PokemonVolume data
			Vector3f m_colliderCenter
				float x = 0
				float y = 0.9
				float z = 0
			float m_colliderRadius = 0.9
			float m_navMeshAgentRadius = 0.9
			float m_navMeshAgentHeight = 2.1
			Vector3f m_shadowScale
				float x = 1.6
				float y = 1
				float z = 1.2
			Vector3f m_shadowCenter
				float x = 0
				float y = 0
				float z = -0.07
		[28]
		PokemonVolume data
			Vector3f m_colliderCenter
				float x = 0
				float y = 1.6
				float z = 0
			float m_colliderRadius = 1.6
			float m_navMeshAgentRadius = 1.6
			float m_navMeshAgentHeight = 2.9
			Vector3f m_shadowScale
				float x = 1.8
				float y = 1
				float z = 1.5
			Vector3f m_shadowCenter
				float x = 0
				float y = 0
				float z = -0.14
		[29]
		PokemonVolume data
			Vector3f m_colliderCenter
				float x = 0
				float y = 1.1
				float z = 0
			float m_colliderRadius = 1.1
			float m_navMeshAgentRadius = 1.1
			float m_navMeshAgentHeight = 1.4
			Vector3f m_shadowScale
				float x = 1.4
				float y = 1
				float z = 1.5
			Vector3f m_shadowCenter
				float x = 0
				float y = 0
				float z = -0.12
		[30]
		PokemonVolume data
			Vector3f m_colliderCenter
				float x = 0
				float y = 1.3
				float z = 0
			float m_colliderRadius = 1.3
			float m_navMeshAgentRadius = 1.3
			float m_navMeshAgentHeight = 2.5
			Vector3f m_shadowScale
				float x = 1.8
				float y = 1
				float z = 1.2
			Vector3f m_shadowCenter
				float x = 0
				float y = 0
				float z = -0.18
		[31]
		PokemonVolume data
			Vector3f m_colliderCenter
				float x = 0
				float y = 1.6
				float z = 0
			float m_colliderRadius = 1.6
			float m_navMeshAgentRadius = 1.6
			float m_navMeshAgentHeight = 3.2
			Vector3f m_shadowScale
				float x = 2.4
				float y = 1
				float z = 1.6
			Vector3f m_shadowCenter
				float x = 0
				float y = 0
				float z = -0.42
		[32]
		PokemonVolume data
			Vector3f m_colliderCenter
				float x = 0
				float y = 1.1
				float z = 0
			float m_colliderRadius = 1.1
			float m_navMeshAgentRadius = 1.1
			float m_navMeshAgentHeight = 1.4
			Vector3f m_shadowScale
				float x = 1.4
				float y = 1
				float z = 1.5
			Vector3f m_shadowCenter
				float x = 0
				float y = 0
				float z = -0.13
		[33]
		PokemonVolume data
			Vector3f m_colliderCenter
				float x = 0
				float y = 1.6
				float z = 0
			float m_colliderRadius = 1.6
			float m_navMeshAgentRadius = 1.6
			float m_navMeshAgentHeight = 2
			Vector3f m_shadowScale
				float x = 1.9
				float y = 1
				float z = 2.1
			Vector3f m_shadowCenter
				float x = 0
				float y = 0
				float z = -0.303
		[34]
		PokemonVolume data
			Vector3f m_colliderCenter
				float x = 0
				float y = 1.9
				float z = 0
			float m_colliderRadius = 1.9
			float m_navMeshAgentRadius = 1.9
			float m_navMeshAgentHeight = 3.3
			Vector3f m_shadowScale
				float x = 3
				float y = 1
				float z = 2
			Vector3f m_shadowCenter
				float x = 0
				float y = 0
				float z = -0.35
		[35]
		PokemonVolume data
			Vector3f m_colliderCenter
				float x = 0
				float y = 1
				float z = 0
			float m_colliderRadius = 1
			float m_navMeshAgentRadius = 1
			float m_navMeshAgentHeight = 1.9
			Vector3f m_shadowScale
				float x = 1.2
				float y = 1
				float z = 1
			Vector3f m_shadowCenter
				float x = 0
				float y = 0
				float z = 0
		[36]
		PokemonVolume data
			Vector3f m_colliderCenter
				float x = 0
				float y = 1.2
				float z = 0
			float m_colliderRadius = 1.2
			float m_navMeshAgentRadius = 1.2
			float m_navMeshAgentHeight = 2.2
			Vector3f m_shadowScale
				float x = 1.5
				float y = 1
				float z = 1.4
			Vector3f m_shadowCenter
				float x = 0
				float y = 0
				float z = 0.008
		[37]
		PokemonVolume data
			Vector3f m_colliderCenter
				float x = 0
				float y = 1.2
				float z = 0
			float m_colliderRadius = 1.2
			float m_navMeshAgentRadius = 1.2
			float m_navMeshAgentHeight = 1.7
			Vector3f m_shadowScale
				float x = 1
				float y = 1
				float z = 1.5
			Vector3f m_shadowCenter
				float x = 0
				float y = 0
				float z = -0.082
		[38]
		PokemonVolume data
			Vector3f m_colliderCenter
				float x = 0
				float y = 1.8
				float z = 0
			float m_colliderRadius = 1.8
			float m_navMeshAgentRadius = 1.8
			float m_navMeshAgentHeight = 2.8
			Vector3f m_shadowScale
				float x = 1.4
				float y = 1
				float z = 2.1
			Vector3f m_shadowCenter
				float x = 0
				float y = 0
				float z = -0.11
		[39]
		PokemonVolume data
			Vector3f m_colliderCenter
				float x = 0
				float y = 0.9
				float z = 0
			float m_colliderRadius = 0.9
			float m_navMeshAgentRadius = 0.9
			float m_navMeshAgentHeight = 1.6
			Vector3f m_shadowScale
				float x = 1.3
				float y = 1
				float z = 1.3
			Vector3f m_shadowCenter
				float x = 0
				float y = 0
				float z = 0.128
		[40]
		PokemonVolume data
			Vector3f m_colliderCenter
				float x = 0
				float y = 1.2
				float z = 0
			float m_colliderRadius = 1.2
			float m_navMeshAgentRadius = 1.2
			float m_navMeshAgentHeight = 2.2
			Vector3f m_shadowScale
				float x = 1.7
				float y = 1
				float z = 1.6
			Vector3f m_shadowCenter
				float x = 0
				float y = 0
				float z = 0.083
		[41]
		PokemonVolume data
			Vector3f m_colliderCenter
				float x = 0
				float y = 1.1
				float z = 0
			float m_colliderRadius = 1.1
			float m_navMeshAgentRadius = 1.1
			float m_navMeshAgentHeight = 2.7
			Vector3f m_shadowScale
				float x = 1
				float y = 1
				float z = 0.7
			Vector3f m_shadowCenter
				float x = 0
				float y = 0
				float z = -0.113
		[42]
		PokemonVolume data
			Vector3f m_colliderCenter
				float x = 0
				float y = 1.7
				float z = 0
			float m_colliderRadius = 1.7
			float m_navMeshAgentRadius = 1.7
			float m_navMeshAgentHeight = 2.8
			Vector3f m_shadowScale
				float x = 1.3
				float y = 1
				float z = 0.8
			Vector3f m_shadowCenter
				float x = 0
				float y = 0
				float z = 0
		[43]
		PokemonVolume data
			Vector3f m_colliderCenter
				float x = 0
				float y = 0.8
				float z = 0
			float m_colliderRadius = 0.8
			float m_navMeshAgentRadius = 0.8
			float m_navMeshAgentHeight = 2
			Vector3f m_shadowScale
				float x = 1.2
				float y = 1
				float z = 1
			Vector3f m_shadowCenter
				float x = 0
				float y = 0
				float z = 0.078
		[44]
		PokemonVolume data
			Vector3f m_colliderCenter
				float x = 0
				float y = 1.1
				float z = 0
			float m_colliderRadius = 1.1
			float m_navMeshAgentRadius = 1.1
			float m_navMeshAgentHeight = 2.1
			Vector3f m_shadowScale
				float x = 1.5
				float y = 1
				float z = 1.3
			Vector3f m_shadowCenter
				float x = 0
				float y = 0
				float z = 0.011
		[45]
		PokemonVolume data
			Vector3f m_colliderCenter
				float x = 0
				float y = 2.2
				float z = 0
			float m_colliderRadius = 2.2
			float m_navMeshAgentRadius = 2.2
			float m_navMeshAgentHeight = 2.2
			Vector3f m_shadowScale
				float x = 2.5
				float y = 1
				float z = 2.5
			Vector3f m_shadowCenter
				float x = 0
				float y = 0
				float z = 0
		[46]
		PokemonVolume data
			Vector3f m_colliderCenter
				float x = 0
				float y = 1.4
				float z = 0
			float m_colliderRadius = 1.4
			float m_navMeshAgentRadius = 1.4
			float m_navMeshAgentHeight = 1.3
			Vector3f m_shadowScale
				float x = 2
				float y = 1
				float z = 1.5
			Vector3f m_shadowCenter
				float x = 0
				float y = 0
				float z = -0.096
		[47]
		PokemonVolume data
			Vector3f m_colliderCenter
				float x = 0
				float y = 1.9
				float z = 0
			float m_colliderRadius = 1.9
			float m_navMeshAgentRadius = 1.9
			float m_navMeshAgentHeight = 2.3
			Vector3f m_shadowScale
				float x = 3
				float y = 1
				float z = 2.5
			Vector3f m_shadowCenter
				float x = 0
				float y = 0
				float z = 0.02
		[48]
		PokemonVolume data
			Vector3f m_colliderCenter
				float x = 0
				float y = 0.9
				float z = 0
			float m_colliderRadius = 0.9
			float m_navMeshAgentRadius = 0.9
			float m_navMeshAgentHeight = 1.7
			Vector3f m_shadowScale
				float x = 1.4
				float y = 1
				float z = 1.4
			Vector3f m_shadowCenter
				float x = 0
				float y = 0
				float z = 0.02
		[49]
		PokemonVolume data
			Vector3f m_colliderCenter
				float x = 0
				float y = 1.7
				float z = 0
			float m_colliderRadius = 1.7
			float m_navMeshAgentRadius = 1.7
			float m_navMeshAgentHeight = 3
			Vector3f m_shadowScale
				float x = 1.3
				float y = 1
				float z = 0.9
			Vector3f m_shadowCenter
				float x = 0
				float y = 0
				float z = 0
		[50]
		PokemonVolume data
			Vector3f m_colliderCenter
				float x = 0
				float y = 0.9
				float z = 0
			float m_colliderRadius = 0.9
			float m_navMeshAgentRadius = 0.9
			float m_navMeshAgentHeight = 1.3
			Vector3f m_shadowScale
				float x = 1.5
				float y = 1
				float z = 1.5
			Vector3f m_shadowCenter
				float x = 0
				float y = 0
				float z = 0.036
		[51]
		PokemonVolume data
			Vector3f m_colliderCenter
				float x = 0
				float y = 1.4
				float z = 0
			float m_colliderRadius = 1.4
			float m_navMeshAgentRadius = 1.4
			float m_navMeshAgentHeight = 1.9
			Vector3f m_shadowScale
				float x = 2.5
				float y = 1
				float z = 2.6
			Vector3f m_shadowCenter
				float x = 0
				float y = 0
				float z = -0.095
		[52]
		PokemonVolume data
			Vector3f m_colliderCenter
				float x = 0
				float y = 1
				float z = 0
			float m_colliderRadius = 1
			float m_navMeshAgentRadius = 1
			float m_navMeshAgentHeight = 2.2
			Vector3f m_shadowScale
				float x = 1.2
				float y = 1
				float z = 1
			Vector3f m_shadowCenter
				float x = 0
				float y = 0
				float z = 0.153
		[53]
		PokemonVolume data
			Vector3f m_colliderCenter
				float x = 0
				float y = 1.7
				float z = 0
			float m_colliderRadius = 1.7
			float m_navMeshAgentRadius = 1.7
			float m_navMeshAgentHeight = 2.9
			Vector3f m_shadowScale
				float x = 1.3
				float y = 1
				float z = 2.2
			Vector3f m_shadowCenter
				float x = 0
				float y = 0
				float z = 0
		[54]
		PokemonVolume data
			Vector3f m_colliderCenter
				float x = 0
				float y = 1.1
				float z = 0
			float m_colliderRadius = 1.1
			float m_navMeshAgentRadius = 1.1
			float m_navMeshAgentHeight = 2.2
			Vector3f m_shadowScale
				float x = 1.5
				float y = 1
				float z = 1.4
			Vector3f m_shadowCenter
				float x = 0
				float y = 0
				float z = 0.034
		[55]
		PokemonVolume data
			Vector3f m_colliderCenter
				float x = 0
				float y = 1.4
				float z = 0
			float m_colliderRadius = 1.4
			float m_navMeshAgentRadius = 1.4
			float m_navMeshAgentHeight = 3.1
			Vector3f m_shadowScale
				float x = 2.1
				float y = 1
				float z = 1.5
			Vector3f m_shadowCenter
				float x = 0
				float y = 0
				float z = 0.06
		[56]
		PokemonVolume data
			Vector3f m_colliderCenter
				float x = 0
				float y = 1
				float z = 0
			float m_colliderRadius = 1
			float m_navMeshAgentRadius = 1
			float m_navMeshAgentHeight = 1.6
			Vector3f m_shadowScale
				float x = 1.2
				float y = 1
				float z = 1
			Vector3f m_shadowCenter
				float x = 0
				float y = 0
				float z = 0.061
		[57]
		PokemonVolume data
			Vector3f m_colliderCenter
				float x = 0
				float y = 1.4
				float z = 0
			float m_colliderRadius = 1.4
			float m_navMeshAgentRadius = 1.4
			float m_navMeshAgentHeight = 2.5
			Vector3f m_shadowScale
				float x = 1.8
				float y = 1
				float z = 1.4
			Vector3f m_shadowCenter
				float x = 0
				float y = 0
				float z = 0.086
		[58]
		PokemonVolume data
			Vector3f m_colliderCenter
				float x = 0
				float y = 1.3
				float z = 0
			float m_colliderRadius = 1.3
			float m_navMeshAgentRadius = 1.3
			float m_navMeshAgentHeight = 2
			Vector3f m_shadowScale
				float x = 1.1
				float y = 1
				float z = 1.7
			Vector3f m_shadowCenter
				float x = 0
				float y = 0
				float z = -0.084
		[59]
		PokemonVolume data
			Vector3f m_colliderCenter
				float x = 0
				float y = 1.7
				float z = 0
			float m_colliderRadius = 1.7
			float m_navMeshAgentRadius = 1.7
			float m_navMeshAgentHeight = 2.6
			Vector3f m_shadowScale
				float x = 1.5
				float y = 1
				float z = 2.4
			Vector3f m_shadowCenter
				float x = 0
				float y = 0
				float z = -0.131
		[60]
		PokemonVolume data
			Vector3f m_colliderCenter
				float x = 0
				float y = 1.1
				float z = 0
			float m_colliderRadius = 1.1
			float m_navMeshAgentRadius = 1.1
			float m_navMeshAgentHeight = 1.5
			Vector3f m_shadowScale
				float x = 1.5
				float y = 1
				float z = 1.6
			Vector3f m_shadowCenter
				float x = 0
				float y = 0
				float z = 0.375
		[61]
		PokemonVolume data
			Vector3f m_colliderCenter
				float x = 0
				float y = 1.5
				float z = 0
			float m_colliderRadius = 1.5
			float m_navMeshAgentRadius = 1.5
			float m_navMeshAgentHeight = 2.1
			Vector3f m_shadowScale
				float x = 2
				float y = 1
				float z = 1.3
			Vector3f m_shadowCenter
				float x = 0
				float y = 0
				float z = 0.043
		[62]
		PokemonVolume data
			Vector3f m_colliderCenter
				float x = 0
				float y = 1.8
				float z = 0
			float m_colliderRadius = 1.8
			float m_navMeshAgentRadius = 1.8
			float m_navMeshAgentHeight = 2.4
			Vector3f m_shadowScale
				float x = 2.2
				float y = 1
				float z = 1.5
			Vector3f m_shadowCenter
				float x = 0
				float y = 0
				float z = 0.215
		[63]
		PokemonVolume data
			Vector3f m_colliderCenter
				float x = 0
				float y = 1.1
				float z = 0
			float m_colliderRadius = 1.1
			float m_navMeshAgentRadius = 1.1
			float m_navMeshAgentHeight = 2.4
			Vector3f m_shadowScale
				float x = 1
				float y = 1
				float z = 1.1
			Vector3f m_shadowCenter
				float x = 0
				float y = 0
				float z = -0.044
		[64]
		PokemonVolume data
			Vector3f m_colliderCenter
				float x = 0
				float y = 1.5
				float z = 0
			float m_colliderRadius = 1.5
			float m_navMeshAgentRadius = 1.5
			float m_navMeshAgentHeight = 2.6
			Vector3f m_shadowScale
				float x = 1.8
				float y = 1
				float z = 2
			Vector3f m_shadowCenter
				float x = 0
				float y = 0
				float z = 0.144
		[65]
		PokemonVolume data
			Vector3f m_colliderCenter
				float x = 0
				float y = 1.7
				float z = 0
			float m_colliderRadius = 1.7
			float m_navMeshAgentRadius = 1.7
			float m_navMeshAgentHeight = 4.1
			Vector3f m_shadowScale
				float x = 1.7
				float y = 1
				float z = 1.3
			Vector3f m_shadowCenter
				float x = 0
				float y = 0
				float z = -0.28
		[66]
		PokemonVolume data
			Vector3f m_colliderCenter
				float x = 0
				float y = 1
				float z = 0
			float m_colliderRadius = 1
			float m_navMeshAgentRadius = 1
			float m_navMeshAgentHeight = 2.2
			Vector3f m_shadowScale
				float x = 0.9
				float y = 1
				float z = 0.8
			Vector3f m_shadowCenter
				float x = 0
				float y = 0
				float z = 0.05
		[67]
		PokemonVolume data
			Vector3f m_colliderCenter
				float x = 0
				float y = 1.6
				float z = 0
			float m_colliderRadius = 1.6
			float m_navMeshAgentRadius = 1.6
			float m_navMeshAgentHeight = 3.1
			Vector3f m_shadowScale
				float x = 1.8
				float y = 1
				float z = 1.1
			Vector3f m_shadowCenter
				float x = 0
				float y = 0
				float z = 0.09
		[68]
		PokemonVolume data
			Vector3f m_colliderCenter
				float x = 0
				float y = 1.7
				float z = 0
			float m_colliderRadius = 1.7
			float m_navMeshAgentRadius = 1.7
			float m_navMeshAgentHeight = 3.6
			Vector3f m_shadowScale
				float x = 2.1
				float y = 1
				float z = 1.4
			Vector3f m_shadowCenter
				float x = 0
				float y = 0
				float z = -0.128
		[69]
		PokemonVolume data
			Vector3f m_colliderCenter
				float x = 0
				float y = 0.9
				float z = 0
			float m_colliderRadius = 0.9
			float m_navMeshAgentRadius = 0.9
			float m_navMeshAgentHeight = 2
			Vector3f m_shadowScale
				float x = 1.6
				float y = 1
				float z = 0.8
			Vector3f m_shadowCenter
				float x = 0
				float y = 0
				float z = 0
		[70]
		PokemonVolume data
			Vector3f m_colliderCenter
				float x = 0
				float y = 1.2
				float z = 0
			float m_colliderRadius = 1.2
			float m_navMeshAgentRadius = 1.2
			float m_navMeshAgentHeight = 3
			Vector3f m_shadowScale
				float x = 2.1
				float y = 1
				float z = 1.2
			Vector3f m_shadowCenter
				float x = 0
				float y = 0
				float z = 0
		[71]
		PokemonVolume data
			Vector3f m_colliderCenter
				float x = 0
				float y = 1.6
				float z = 0
			float m_colliderRadius = 1.6
			float m_navMeshAgentRadius = 1.6
			float m_navMeshAgentHeight = 3.5
			Vector3f m_shadowScale
				float x = 1.9
				float y = 1
				float z = 1.1
			Vector3f m_shadowCenter
				float x = 0
				float y = 0
				float z = 0
		[72]
		PokemonVolume data
			Vector3f m_colliderCenter
				float x = 0
				float y = 0.7
				float z = 0
			float m_colliderRadius = 0.7
			float m_navMeshAgentRadius = 0.7
			float m_navMeshAgentHeight = 2.7
			Vector3f m_shadowScale
				float x = 0.8
				float y = 1
				float z = 0.8
			Vector3f m_shadowCenter
				float x = 0
				float y = 0
				float z = 0
		[73]
		PokemonVolume data
			Vector3f m_colliderCenter
				float x = 0
				float y = 1.5
				float z = 0
			float m_colliderRadius = 1.5
			float m_navMeshAgentRadius = 1.5
			float m_navMeshAgentHeight = 3.6
			Vector3f m_shadowScale
				float x = 1.8
				float y = 1
				float z = 1.5
			Vector3f m_shadowCenter
				float x = 0
				float y = 0
				float z = -0.066
		[74]
		PokemonVolume data
			Vector3f m_colliderCenter
				float x = 0
				float y = 1.2
				float z = 0
			float m_colliderRadius = 1.2
			float m_navMeshAgentRadius = 1.2
			float m_navMeshAgentHeight = 2
			Vector3f m_shadowScale
				float x = 1.1
				float y = 1
				float z = 0.8
			Vector3f m_shadowCenter
				float x = 0
				float y = 0
				float z = 0
		[75]
		PokemonVolume data
			Vector3f m_colliderCenter
				float x = 0
				float y = 1.7
				float z = 0
			float m_colliderRadius = 1.7
			float m_navMeshAgentRadius = 1.7
			float m_navMeshAgentHeight = 2.3
			Vector3f m_shadowScale
				float x = 2
				float y = 1
				float z = 1.6
			Vector3f m_shadowCenter
				float x = 0
				float y = 0
				float z = 0
		[76]
		PokemonVolume data
			Vector3f m_colliderCenter
				float x = 0
				float y = 2.1
				float z = 0
			float m_colliderRadius = 2.1
			float m_navMeshAgentRadius = 2.1
			float m_navMeshAgentHeight = 3.5
			Vector3f m_shadowScale
				float x = 3.5
				float y = 1
				float z = 2.3
			Vector3f m_shadowCenter
				float x = 0
				float y = 0
				float z = -0.08
		[77]
		PokemonVolume data
			Vector3f m_colliderCenter
				float x = 0
				float y = 1.3
				float z = 0
			float m_colliderRadius = 1.3
			float m_navMeshAgentRadius = 1.3
			float m_navMeshAgentHeight = 2.5
			Vector3f m_shadowScale
				float x = 1.1
				float y = 1
				float z = 1.6
			Vector3f m_shadowCenter
				float x = 0
				float y = 0
				float z = -0.2
		[78]
		PokemonVolume data
			Vector3f m_colliderCenter
				float x = 0
				float y = 1.8
				float z = 0
			float m_colliderRadius = 1.8
			float m_navMeshAgentRadius = 1.8
			float m_navMeshAgentHeight = 3.4
			Vector3f m_shadowScale
				float x = 1.3
				float y = 1
				float z = 2.4
			Vector3f m_shadowCenter
				float x = 0
				float y = 0
				float z = -0.308
		[79]
		PokemonVolume data
			Vector3f m_colliderCenter
				float x = 0
				float y = 1.2
				float z = 0
			float m_colliderRadius = 1.2
			float m_navMeshAgentRadius = 1.2
			float m_navMeshAgentHeight = 1
			Vector3f m_shadowScale
				float x = 1.6
				float y = 1
				float z = 2.3
			Vector3f m_shadowCenter
				float x = 0
				float y = 0
				float z = -0.052
		[80]
		PokemonVolume data
			Vector3f m_colliderCenter
				float x = 0
				float y = 1.7
				float z = 0
			float m_colliderRadius = 1.7
			float m_navMeshAgentRadius = 1.7
			float m_navMeshAgentHeight = 2.3
			Vector3f m_shadowScale
				float x = 1.8
				float y = 1
				float z = 2.4
			Vector3f m_shadowCenter
				float x = 0
				float y = 0
				float z = 0.15
		[81]
		PokemonVolume data
			Vector3f m_colliderCenter
				float x = 0
				float y = 1.2
				float z = 0
			float m_colliderRadius = 1.2
			float m_navMeshAgentRadius = 1.2
			float m_navMeshAgentHeight = 2.3
			Vector3f m_shadowScale
				float x = 1
				float y = 1
				float z = 0.8
			Vector3f m_shadowCenter
				float x = 0
				float y = 0
				float z = 0
		[82]
		PokemonVolume data
			Vector3f m_colliderCenter
				float x = 0
				float y = 2.2
				float z = 0
			float m_colliderRadius = 2.2
			float m_navMeshAgentRadius = 2.2
			float m_navMeshAgentHeight = 4
			Vector3f m_shadowScale
				float x = 2.4
				float y = 1
				float z = 1
			Vector3f m_shadowCenter
				float x = 0
				float y = 0
				float z = 0
		[83]
		PokemonVolume data
			Vector3f m_colliderCenter
				float x = 0
				float y = 1.5
				float z = 0
			float m_colliderRadius = 1.5
			float m_navMeshAgentRadius = 1.5
			float m_navMeshAgentHeight = 3
			Vector3f m_shadowScale
				float x = 1.4
				float y = 1
				float z = 1
			Vector3f m_shadowCenter
				float x = 0
				float y = 0
				float z = -0.242
		[84]
		PokemonVolume data
			Vector3f m_colliderCenter
				float x = 0
				float y = 1
				float z = 0
			float m_colliderRadius = 1
			float m_navMeshAgentRadius = 1
			float m_navMeshAgentHeight = 3.1
			Vector3f m_shadowScale
				float x = 1.3
				float y = 1
				float z = 1
			Vector3f m_shadowCenter
				float x = 0
				float y = 0
				float z = 0.061
		[85]
		PokemonVolume data
			Vector3f m_colliderCenter
				float x = 0
				float y = 1.5
				float z = 0
			float m_colliderRadius = 1.5
			float m_navMeshAgentRadius = 1.5
			float m_navMeshAgentHeight = 4.2
			Vector3f m_shadowScale
				float x = 1.6
				float y = 1
				float z = 1.2
			Vector3f m_shadowCenter
				float x = 0
				float y = 0
				float z = 0.011
		[86]
		PokemonVolume data
			Vector3f m_colliderCenter
				float x = 0
				float y = 1.2
				float z = 0
			float m_colliderRadius = 1.2
			float m_navMeshAgentRadius = 1.2
			float m_navMeshAgentHeight = 1.6
			Vector3f m_shadowScale
				float x = 1.3
				float y = 1
				float z = 1.9
			Vector3f m_shadowCenter
				float x = 0
				float y = 0
				float z = 0.03
		[87]
		PokemonVolume data
			Vector3f m_colliderCenter
				float x = 0
				float y = 1.9
				float z = 0
			float m_colliderRadius = 1.9
			float m_navMeshAgentRadius = 1.9
			float m_navMeshAgentHeight = 2
			Vector3f m_shadowScale
				float x = 1.9
				float y = 1
				float z = 2.6
			Vector3f m_shadowCenter
				float x = 0
				float y = 0
				float z = -0.22
		[88]
		PokemonVolume data
			Vector3f m_colliderCenter
				float x = 0
				float y = 1.5
				float z = 0
			float m_colliderRadius = 1.5
			float m_navMeshAgentRadius = 1.5
			float m_navMeshAgentHeight = 1.5
			Vector3f m_shadowScale
				float x = 2
				float y = 1
				float z = 2.4
			Vector3f m_shadowCenter
				float x = 0
				float y = 0
				float z = -0.2
		[89]
		PokemonVolume data
			Vector3f m_colliderCenter
				float x = 0
				float y = 2.3
				float z = 0
			float m_colliderRadius = 2.3
			float m_navMeshAgentRadius = 2.3
			float m_navMeshAgentHeight = 1.8
			Vector3f m_shadowScale
				float x = 4.3
				float y = 1
				float z = 3.8
			Vector3f m_shadowCenter
				float x = 0
				float y = 0
				float z = -0.1
		[90]
		PokemonVolume data
			Vector3f m_colliderCenter
				float x = 0
				float y = 1
				float z = 0
			float m_colliderRadius = 1
			float m_navMeshAgentRadius = 1
			float m_navMeshAgentHeight = 1.2
			Vector3f m_shadowScale
				float x = 1.1
				float y = 1
				float z = 1.3
			Vector3f m_shadowCenter
				float x = 0
				float y = 0
				float z = 0
		[91]
		PokemonVolume data
			Vector3f m_colliderCenter
				float x = 0
				float y = 1.7
				float z = 0
			float m_colliderRadius = 1.7
			float m_navMeshAgentRadius = 1.7
			float m_navMeshAgentHeight = 3.6
			Vector3f m_shadowScale
				float x = 1.9
				float y = 1
				float z = 2
			Vector3f m_shadowCenter
				float x = 0
				float y = 0
				float z = -0.2
		[92]
		PokemonVolume data
			Vector3f m_colliderCenter
				float x = 0
				float y = 1.1
				float z = 0
			float m_colliderRadius = 1.1
			float m_navMeshAgentRadius = 1.1
			float m_navMeshAgentHeight = 2.5
			Vector3f m_shadowScale
				float x = 1.1
				float y = 1
				float z = 1.1
			Vector3f m_shadowCenter
				float x = 0
				float y = 0
				float z = -0.1
		[93]
		PokemonVolume data
			Vector3f m_colliderCenter
				float x = 0
				float y = 1.5
				float z = 0
			float m_colliderRadius = 1.5
			float m_navMeshAgentRadius = 1.5
			float m_navMeshAgentHeight = 2.5
			Vector3f m_shadowScale
				float x = 1.4
				float y = 1
				float z = 1.3
			Vector3f m_shadowCenter
				float x = 0
				float y = 0
				float z = 0
		[94]
		PokemonVolume data
			Vector3f m_colliderCenter
				float x = 0
				float y = 1.4
				float z = 0
			float m_colliderRadius = 1.4
			float m_navMeshAgentRadius = 1.4
			float m_navMeshAgentHeight = 2.8
			Vector3f m_shadowScale
				float x = 1.9
				float y = 1
				float z = 1.8
			Vector3f m_shadowCenter
				float x = 0
				float y = 0
				float z = 0.016
		[95]
		PokemonVolume data
			Vector3f m_colliderCenter
				float x = 0
				float y = 2
				float z = 0
			float m_colliderRadius = 2
			float m_navMeshAgentRadius = 2
			float m_navMeshAgentHeight = 4.1
			Vector3f m_shadowScale
				float x = 1.3
				float y = 1
				float z = 2.5
			Vector3f m_shadowCenter
				float x = 0
				float y = 0
				float z = -0.517
		[96]
		PokemonVolume data
			Vector3f m_colliderCenter
				float x = 0
				float y = 1.3
				float z = 0
			float m_colliderRadius = 1.3
			float m_navMeshAgentRadius = 1.3
			float m_navMeshAgentHeight = 2.4
			Vector3f m_shadowScale
				float x = 2
				float y = 1
				float z = 1.4
			Vector3f m_shadowCenter
				float x = 0
				float y = 0
				float z = -0.05
		[97]
		PokemonVolume data
			Vector3f m_colliderCenter
				float x = 0
				float y = 1.3
				float z = 0
			float m_colliderRadius = 1.3
			float m_navMeshAgentRadius = 1.3
			float m_navMeshAgentHeight = 2.8
			Vector3f m_shadowScale
				float x = 1.7
				float y = 1
				float z = 1.1
			Vector3f m_shadowCenter
				float x = 0
				float y = 0
				float z = -0.049
		[98]
		PokemonVolume data
			Vector3f m_colliderCenter
				float x = 0
				float y = 1.2
				float z = 0
			float m_colliderRadius = 1.2
			float m_navMeshAgentRadius = 1.2
			float m_navMeshAgentHeight = 1.7
			Vector3f m_shadowScale
				float x = 0.9
				float y = 1
				float z = 2.7
			Vector3f m_shadowCenter
				float x = -0.04
				float y = 0
				float z = 0
		[99]
		PokemonVolume data
			Vector3f m_colliderCenter
				float x = 0
				float y = 1.9
				float z = 0
			float m_colliderRadius = 1.9
			float m_navMeshAgentRadius = 1.9
			float m_navMeshAgentHeight = 2.9
			Vector3f m_shadowScale
				float x = 1.1
				float y = 1
				float z = 4
			Vector3f m_shadowCenter
				float x = -0.08
				float y = 0
				float z = 0
		[100]
		PokemonVolume data
			Vector3f m_colliderCenter
				float x = 0
				float y = 1
				float z = 0
			float m_colliderRadius = 1
			float m_navMeshAgentRadius = 1
			float m_navMeshAgentHeight = 1.5
			Vector3f m_shadowScale
				float x = 1.4
				float y = 1
				float z = 1.4
			Vector3f m_shadowCenter
				float x = 0
				float y = 0
				float z = 0
		[101]
		PokemonVolume data
			Vector3f m_colliderCenter
				float x = 0
				float y = 1.7
				float z = 0
			float m_colliderRadius = 1.7
			float m_navMeshAgentRadius = 1.7
			float m_navMeshAgentHeight = 2.7
			Vector3f m_shadowScale
				float x = 2.3
				float y = 1
				float z = 2.3
			Vector3f m_shadowCenter
				float x = 0
				float y = 0
				float z = 0
		[102]
		PokemonVolume data
			Vector3f m_colliderCenter
				float x = 0
				float y = 1.8
				float z = 0
			float m_colliderRadius = 1.8
			float m_navMeshAgentRadius = 1.8
			float m_navMeshAgentHeight = 1.4
			Vector3f m_shadowScale
				float x = 3
				float y = 1
				float z = 3
			Vector3f m_shadowCenter
				float x = 0
				float y = 0
				float z = -0.08
		[103]
		PokemonVolume data
			Vector3f m_colliderCenter
				float x = 0
				float y = 1.6
				float z = 0
			float m_colliderRadius = 1.6
			float m_navMeshAgentRadius = 1.6
			float m_navMeshAgentHeight = 2.8
			Vector3f m_shadowScale
				float x = 2
				float y = 1
				float z = 1.5
			Vector3f m_shadowCenter
				float x = 0
				float y = 0
				float z = 0
		[104]
		PokemonVolume data
			Vector3f m_colliderCenter
				float x = 0
				float y = 1.1
				float z = 0
			float m_colliderRadius = 1.1
			float m_navMeshAgentRadius = 1.1
			float m_navMeshAgentHeight = 2.1
			Vector3f m_shadowScale
				float x = 1.3
				float y = 1
				float z = 1.1
			Vector3f m_shadowCenter
				float x = 0
				float y = 0
				float z = -0.069
		[105]
		PokemonVolume data
			Vector3f m_colliderCenter
				float x = 0
				float y = 1.3
				float z = 0
			float m_colliderRadius = 1.3
			float m_navMeshAgentRadius = 1.3
			float m_navMeshAgentHeight = 2.6
			Vector3f m_shadowScale
				float x = 1.5
				float y = 1
				float z = 1.2
			Vector3f m_shadowCenter
				float x = 0
				float y = 0
				float z = 0
		[106]
		PokemonVolume data
			Vector3f m_colliderCenter
				float x = 0
				float y = 1.1
				float z = 0
			float m_colliderRadius = 1.1
			float m_navMeshAgentRadius = 1.1
			float m_navMeshAgentHeight = 2.7
			Vector3f m_shadowScale
				float x = 1.5
				float y = 1
				float z = 1.1
			Vector3f m_shadowCenter
				float x = 0
				float y = 0
				float z = 0
		[107]
		PokemonVolume data
			Vector3f m_colliderCenter
				float x = 0
				float y = 1.1
				float z = 0
			float m_colliderRadius = 1.1
			float m_navMeshAgentRadius = 1.1
			float m_navMeshAgentHeight = 2.8
			Vector3f m_shadowScale
				float x = 1.1
				float y = 1
				float z = 1.5
			Vector3f m_shadowCenter
				float x = 0
				float y = 0
				float z = 0.076
		[108]
		PokemonVolume data
			Vector3f m_colliderCenter
				float x = 0
				float y = 1.5
				float z = 0
			float m_colliderRadius = 1.5
			float m_navMeshAgentRadius = 1.5
			float m_navMeshAgentHeight = 2.5
			Vector3f m_shadowScale
				float x = 2.5
				float y = 1
				float z = 1.6
			Vector3f m_shadowCenter
				float x = 0
				float y = 0
				float z = -0.03
		[109]
		PokemonVolume data
			Vector3f m_colliderCenter
				float x = 0
				float y = 1.1
				float z = 0
			float m_colliderRadius = 1.1
			float m_navMeshAgentRadius = 1.1
			float m_navMeshAgentHeight = 2.4
			Vector3f m_shadowScale
				float x = 1
				float y = 1
				float z = 1
			Vector3f m_shadowCenter
				float x = 0
				float y = 0
				float z = 0
		[110]
		PokemonVolume data
			Vector3f m_colliderCenter
				float x = 0
				float y = 1.8
				float z = 0
			float m_colliderRadius = 1.8
			float m_navMeshAgentRadius = 1.8
			float m_navMeshAgentHeight = 2.7
			Vector3f m_shadowScale
				float x = 1.8
				float y = 1
				float z = 1.4
			Vector3f m_shadowCenter
				float x = 0
				float y = 0
				float z = 0
		[111]
		PokemonVolume data
			Vector3f m_colliderCenter
				float x = 0
				float y = 1.6
				float z = 0
			float m_colliderRadius = 1.6
			float m_navMeshAgentRadius = 1.6
			float m_navMeshAgentHeight = 1.5
			Vector3f m_shadowScale
				float x = 2.1
				float y = 1
				float z = 2.2
			Vector3f m_shadowCenter
				float x = 0
				float y = 0
				float z = -0.253
		[112]
		PokemonVolume data
			Vector3f m_colliderCenter
				float x = 0
				float y = 1.7
				float z = 0
			float m_colliderRadius = 1.7
			float m_navMeshAgentRadius = 1.7
			float m_navMeshAgentHeight = 3.3
			Vector3f m_shadowScale
				float x = 2.4
				float y = 1
				float z = 1.9
			Vector3f m_shadowCenter
				float x = 0
				float y = 0
				float z = -0.03
		[113]
		PokemonVolume data
			Vector3f m_colliderCenter
				float x = 0
				float y = 1.5
				float z = 0
			float m_colliderRadius = 1.5
			float m_navMeshAgentRadius = 1.5
			float m_navMeshAgentHeight = 2.7
			Vector3f m_shadowScale
				float x = 2.2
				float y = 1
				float z = 2
			Vector3f m_shadowCenter
				float x = 0
				float y = 0
				float z = 0.09
		[114]
		PokemonVolume data
			Vector3f m_colliderCenter
				float x = 0
				float y = 1
				float z = 0
			float m_colliderRadius = 1
			float m_navMeshAgentRadius = 1
			float m_navMeshAgentHeight = 1.7
			Vector3f m_shadowScale
				float x = 1.3
				float y = 1
				float z = 1.3
			Vector3f m_shadowCenter
				float x = 0
				float y = 0
				float z = 0
		[115]
		PokemonVolume data
			Vector3f m_colliderCenter
				float x = 0
				float y = 1.8
				float z = 0
			float m_colliderRadius = 1.8
			float m_navMeshAgentRadius = 1.8
			float m_navMeshAgentHeight = 3.1
			Vector3f m_shadowScale
				float x = 2.9
				float y = 1
				float z = 1.7
			Vector3f m_shadowCenter
				float x = 0
				float y = 0
				float z = -0.181
		[116]
		PokemonVolume data
			Vector3f m_colliderCenter
				float x = 0
				float y = 0.8
				float z = 0
			float m_colliderRadius = 0.8
			float m_navMeshAgentRadius = 0.8
			float m_navMeshAgentHeight = 2.5
			Vector3f m_shadowScale
				float x = 0.7
				float y = 1
				float z = 0.8
			Vector3f m_shadowCenter
				float x = 0
				float y = 0
				float z = 0
		[117]
		PokemonVolume data
			Vector3f m_colliderCenter
				float x = 0
				float y = 1.4
				float z = 0
			float m_colliderRadius = 1.4
			float m_navMeshAgentRadius = 1.4
			float m_navMeshAgentHeight = 3.2
			Vector3f m_shadowScale
				float x = 1.2
				float y = 1
				float z = 1.3
			Vector3f m_shadowCenter
				float x = 0
				float y = 0
				float z = 0.028
		[118]
		PokemonVolume data
			Vector3f m_colliderCenter
				float x = 0
				float y = 1.2
				float z = 0
			float m_colliderRadius = 1.2
			float m_navMeshAgentRadius = 1.2
			float m_navMeshAgentHeight = 1.9
			Vector3f m_shadowScale
				float x = 0.9
				float y = 1
				float z = 0.9
			Vector3f m_shadowCenter
				float x = 0
				float y = 0
				float z = -0.051
		[119]
		PokemonVolume data
			Vector3f m_colliderCenter
				float x = 0
				float y = 1.4
				float z = 0
			float m_colliderRadius = 1.4
			float m_navMeshAgentRadius = 1.4
			float m_navMeshAgentHeight = 2.2
			Vector3f m_shadowScale
				float x = 1.1
				float y = 1
				float z = 1.7
			Vector3f m_shadowCenter
				float x = 0
				float y = 0
				float z = 0.171
		[120]
		PokemonVolume data
			Vector3f m_colliderCenter
				float x = 0
				float y = 1
				float z = 0
			float m_colliderRadius = 1
			float m_navMeshAgentRadius = 1
			float m_navMeshAgentHeight = 1.9
			Vector3f m_shadowScale
				float x = 1.5
				float y = 1
				float z = 0.8
			Vector3f m_shadowCenter
				float x = 0
				float y = 0
				float z = 0
		[121]
		PokemonVolume data
			Vector3f m_colliderCenter
				float x = 0
				float y = 1.5
				float z = 0
			float m_colliderRadius = 1.5
			float m_navMeshAgentRadius = 1.5
			float m_navMeshAgentHeight = 2.8
			Vector3f m_shadowScale
				float x = 2.3
				float y = 1
				float z = 1
			Vector3f m_shadowCenter
				float x = 0
				float y = 0
				float z = -0.073
		[122]
		PokemonVolume data
			Vector3f m_colliderCenter
				float x = 0
				float y = 1.6
				float z = 0
			float m_colliderRadius = 1.6
			float m_navMeshAgentRadius = 1.6
			float m_navMeshAgentHeight = 2.6
			Vector3f m_shadowScale
				float x = 2.6
				float y = 1
				float z = 1.3
			Vector3f m_shadowCenter
				float x = 0
				float y = 0
				float z = 0.116
		[123]
		PokemonVolume data
			Vector3f m_colliderCenter
				float x = 0
				float y = 1.5
				float z = 0
			float m_colliderRadius = 1.5
			float m_navMeshAgentRadius = 1.5
			float m_navMeshAgentHeight = 3.7
			Vector3f m_shadowScale
				float x = 1.9
				float y = 1
				float z = 1
			Vector3f m_shadowCenter
				float x = 0
				float y = 0
				float z = -0.09
		[124]
		PokemonVolume data
			Vector3f m_colliderCenter
				float x = 0
				float y = 1.4
				float z = 0
			float m_colliderRadius = 1.4
			float m_navMeshAgentRadius = 1.4
			float m_navMeshAgentHeight = 2.3
			Vector3f m_shadowScale
				float x = 2.3
				float y = 1
				float z = 1.8
			Vector3f m_shadowCenter
				float x = 0
				float y = 0
				float z = 0
		[125]
		PokemonVolume data
			Vector3f m_colliderCenter
				float x = 0
				float y = 1.4
				float z = 0
			float m_colliderRadius = 1.4
			float m_navMeshAgentRadius = 1.4
			float m_navMeshAgentHeight = 2.7
			Vector3f m_shadowScale
				float x = 1.6
				float y = 1
				float z = 1.1
			Vector3f m_shadowCenter
				float x = 0
				float y = 0
				float z = 0.08
		[126]
		PokemonVolume data
			Vector3f m_colliderCenter
				float x = 0
				float y = 1.3
				float z = 0
			float m_colliderRadius = 1.3
			float m_navMeshAgentRadius = 1.3
			float m_navMeshAgentHeight = 2.5
			Vector3f m_shadowScale
				float x = 1.6
				float y = 1
				float z = 1.2
			Vector3f m_shadowCenter
				float x = 0
				float y = 0
				float z = -0.01
		[127]
		PokemonVolume data
			Vector3f m_colliderCenter
				float x = 0
				float y = 1.4
				float z = 0
			float m_colliderRadius = 1.4
			float m_navMeshAgentRadius = 1.4
			float m_navMeshAgentHeight = 3.5
			Vector3f m_shadowScale
				float x = 2.4
				float y = 1
				float z = 1.3
			Vector3f m_shadowCenter
				float x = 0
				float y = 0
				float z = 0.009
		[128]
		PokemonVolume data
			Vector3f m_colliderCenter
				float x = 0
				float y = 2.1
				float z = 0
			float m_colliderRadius = 2.1
			float m_navMeshAgentRadius = 2.1
			float m_navMeshAgentHeight = 2.7
			Vector3f m_shadowScale
				float x = 1.8
				float y = 1
				float z = 2.7
			Vector3f m_shadowCenter
				float x = 0
				float y = 0
				float z = -0.292
		[129]
		PokemonVolume data
			Vector3f m_colliderCenter
				float x = 0
				float y = 1.5
				float z = 0
			float m_colliderRadius = 1.5
			float m_navMeshAgentRadius = 1.5
			float m_navMeshAgentHeight = 1.7
			Vector3f m_shadowScale
				float x = 2
				float y = 1
				float z = 2.6
			Vector3f m_shadowCenter
				float x = 0
				float y = 0
				float z = -0.112
		[130]
		PokemonVolume data
			Vector3f m_colliderCenter
				float x = 0
				float y = 2.4
				float z = 0
			float m_colliderRadius = 2.4
			float m_navMeshAgentRadius = 2.4
			float m_navMeshAgentHeight = 3.7
			Vector3f m_shadowScale
				float x = 1.3
				float y = 1
				float z = 3.4
			Vector3f m_shadowCenter
				float x = 0
				float y = 0
				float z = -0.62
		[131]
		PokemonVolume data
			Vector3f m_colliderCenter
				float x = 0
				float y = 2.1
				float z = 0
			float m_colliderRadius = 2.1
			float m_navMeshAgentRadius = 2.1
			float m_navMeshAgentHeight = 3.2
			Vector3f m_shadowScale
				float x = 2.4
				float y = 1
				float z = 2.7
			Vector3f m_shadowCenter
				float x = 0
				float y = 0
				float z = -0.2
		[132]
		PokemonVolume data
			Vector3f m_colliderCenter
				float x = 0
				float y = 1.1
				float z = 0
			float m_colliderRadius = 1.1
			float m_navMeshAgentRadius = 1.1
			float m_navMeshAgentHeight = 1.7
			Vector3f m_shadowScale
				float x = 2.1
				float y = 1
				float z = 1.2
			Vector3f m_shadowCenter
				float x = 0
				float y = 0
				float z = -0.031
		[133]
		PokemonVolume data
			Vector3f m_colliderCenter
				float x = 0
				float y = 1.1
				float z = 0
			float m_colliderRadius = 1.1
			float m_navMeshAgentRadius = 1.1
			float m_navMeshAgentHeight = 1.8
			Vector3f m_shadowScale
				float x = 0.9
				float y = 1
				float z = 1.3
			Vector3f m_shadowCenter
				float x = 0
				float y = 0
				float z = -0.068
		[134]
		PokemonVolume data
			Vector3f m_colliderCenter
				float x = 0
				float y = 1.2
				float z = 0
			float m_colliderRadius = 1.2
			float m_navMeshAgentRadius = 1.2
			float m_navMeshAgentHeight = 1.9
			Vector3f m_shadowScale
				float x = 1
				float y = 1
				float z = 1.4
			Vector3f m_shadowCenter
				float x = 0
				float y = 0
				float z = -0.074
		[135]
		PokemonVolume data
			Vector3f m_colliderCenter
				float x = 0
				float y = 1.1
				float z = 0
			float m_colliderRadius = 1.1
			float m_navMeshAgentRadius = 1.1
			float m_navMeshAgentHeight = 2
			Vector3f m_shadowScale
				float x = 0.9
				float y = 1
				float z = 1.4
			Vector3f m_shadowCenter
				float x = 0
				float y = 0
				float z = -0.136
		[136]
		PokemonVolume data
			Vector3f m_colliderCenter
				float x = 0
				float y = 1.3
				float z = 0
			float m_colliderRadius = 1.3
			float m_navMeshAgentRadius = 1.3
			float m_navMeshAgentHeight = 1.8
			Vector3f m_shadowScale
				float x = 1
				float y = 1
				float z = 1.6
			Vector3f m_shadowCenter
				float x = 0
				float y = 0
				float z = 0
		[137]
		PokemonVolume data
			Vector3f m_colliderCenter
				float x = 0
				float y = 1
				float z = 0
			float m_colliderRadius = 1
			float m_navMeshAgentRadius = 1
			float m_navMeshAgentHeight = 2.1
			Vector3f m_shadowScale
				float x = 1
				float y = 1
				float z = 1.1
			Vector3f m_shadowCenter
				float x = 0
				float y = 0
				float z = -0.207
		[138]
		PokemonVolume data
			Vector3f m_colliderCenter
				float x = 0
				float y = 1.1
				float z = 0
			float m_colliderRadius = 1.1
			float m_navMeshAgentRadius = 1.1
			float m_navMeshAgentHeight = 1.6
			Vector3f m_shadowScale
				float x = 1.3
				float y = 1
				float z = 1.9
			Vector3f m_shadowCenter
				float x = 0
				float y = 0
				float z = 0.006
		[139]
		PokemonVolume data
			Vector3f m_colliderCenter
				float x = 0
				float y = 1.6
				float z = 0
			float m_colliderRadius = 1.6
			float m_navMeshAgentRadius = 1.6
			float m_navMeshAgentHeight = 2.4
			Vector3f m_shadowScale
				float x = 1.5
				float y = 1
				float z = 2.5
			Vector3f m_shadowCenter
				float x = 0
				float y = 0
				float z = -0.265
		[140]
		PokemonVolume data
			Vector3f m_colliderCenter
				float x = 0
				float y = 0.9
				float z = 0
			float m_colliderRadius = 0.9
			float m_navMeshAgentRadius = 0.9
			float m_navMeshAgentHeight = 0.8
			Vector3f m_shadowScale
				float x = 1.1
				float y = 1
				float z = 1
			Vector3f m_shadowCenter
				float x = 0
				float y = 0
				float z = 0
		[141]
		PokemonVolume data
			Vector3f m_colliderCenter
				float x = 0
				float y = 1.2
				float z = 0
			float m_colliderRadius = 1.2
			float m_navMeshAgentRadius = 1.2
			float m_navMeshAgentHeight = 2.6
			Vector3f m_shadowScale
				float x = 1.5
				float y = 1
				float z = 1
			Vector3f m_shadowCenter
				float x = 0
				float y = 0
				float z = -0.02
		[142]
		PokemonVolume data
			Vector3f m_colliderCenter
				float x = 0
				float y = 2
				float z = 0
			float m_colliderRadius = 2
			float m_navMeshAgentRadius = 2
			float m_navMeshAgentHeight = 3
			Vector3f m_shadowScale
				float x = 1.7
				float y = 1
				float z = 1.7
			Vector3f m_shadowCenter
				float x = 0
				float y = 0
				float z = -0.34
		[143]
		PokemonVolume data
			Vector3f m_colliderCenter
				float x = 0
				float y = 2.1
				float z = 0
			float m_colliderRadius = 2.1
			float m_navMeshAgentRadius = 2.1
			float m_navMeshAgentHeight = 3.5
			Vector3f m_shadowScale
				float x = 3.5
				float y = 1
				float z = 2.9
			Vector3f m_shadowCenter
				float x = 0
				float y = 0
				float z = 0.2
		[144]
		PokemonVolume data
			Vector3f m_colliderCenter
				float x = 0
				float y = 2
				float z = 0
			float m_colliderRadius = 2
			float m_navMeshAgentRadius = 2
			float m_navMeshAgentHeight = 4
			Vector3f m_shadowScale
				float x = 2
				float y = 1
				float z = 1.1
			Vector3f m_shadowCenter
				float x = 0
				float y = 0
				float z = -0.04
		[145]
		PokemonVolume data
			Vector3f m_colliderCenter
				float x = 0
				float y = 2
				float z = 0
			float m_colliderRadius = 2
			float m_navMeshAgentRadius = 2
			float m_navMeshAgentHeight = 4.7
			Vector3f m_shadowScale
				float x = 2
				float y = 1
				float z = 1.3
			Vector3f m_shadowCenter
				float x = 0
				float y = 0
				float z = -0.31
		[146]
		PokemonVolume data
			Vector3f m_colliderCenter
				float x = 0
				float y = 2
				float z = 0
			float m_colliderRadius = 2
			float m_navMeshAgentRadius = 2
			float m_navMeshAgentHeight = 4.6
			Vector3f m_shadowScale
				float x = 2.2
				float y = 1
				float z = 1.2
			Vector3f m_shadowCenter
				float x = 0
				float y = 0
				float z = -0.29
		[147]
		PokemonVolume data
			Vector3f m_colliderCenter
				float x = 0
				float y = 1.1
				float z = 0
			float m_colliderRadius = 1.1
			float m_navMeshAgentRadius = 1.1
			float m_navMeshAgentHeight = 2
			Vector3f m_shadowScale
				float x = 1.5
				float y = 1
				float z = 1.7
			Vector3f m_shadowCenter
				float x = 0.2
				float y = 0
				float z = -0.278
		[148]
		PokemonVolume data
			Vector3f m_colliderCenter
				float x = 0
				float y = 1.7
				float z = 0
			float m_colliderRadius = 1.7
			float m_navMeshAgentRadius = 1.7
			float m_navMeshAgentHeight = 3.3
			Vector3f m_shadowScale
				float x = 2.3
				float y = 1
				float z = 2.5
			Vector3f m_shadowCenter
				float x = 0.4
				float y = 0
				float z = -0.068
		[149]
		PokemonVolume data
			Vector3f m_colliderCenter
				float x = 0
				float y = 1.9
				float z = 0
			float m_colliderRadius = 1.9
			float m_navMeshAgentRadius = 1.9
			float m_navMeshAgentHeight = 3.7
			Vector3f m_shadowScale
				float x = 2.3
				float y = 1
				float z = 1.7
			Vector3f m_shadowCenter
				float x = 0
				float y = 0
				float z = 0.06
		[150]
		PokemonVolume data
			Vector3f m_colliderCenter
				float x = 0
				float y = 1.3
				float z = 0
			float m_colliderRadius = 1.3
			float m_navMeshAgentRadius = 1.3
			float m_navMeshAgentHeight = 3.9
			Vector3f m_shadowScale
				float x = 1.1
				float y = 1
				float z = 1.3
			Vector3f m_shadowCenter
				float x = 0
				float y = 0
				float z = -0.014
		[151]
		PokemonVolume data
			Vector3f m_colliderCenter
				float x = 0
				float y = 1
				float z = 0
			float m_colliderRadius = 1
			float m_navMeshAgentRadius = 1
			float m_navMeshAgentHeight = 2.3
			Vector3f m_shadowScale
				float x = 0.8
				float y = 1
				float z = 0.8
			Vector3f m_shadowCenter
				float x = 0
				float y = 0
				float z = -0.01
