PPtr<GameObject> m_GameObject
	int m_FileID = 0
	SInt64 m_PathID = 0
UInt8 m_Enabled = 1
PPtr<MonoScript> m_Script
	int m_FileID = 0
	SInt64 m_PathID = 1088006837878153380
string m_Name = "EnemyPack_cave2_002"
EnemySet m_normalPrimaryEnemySets
	Array Array
	int size = 2
		[0]
		EnemySet data
			RegistData m_registDatas
				Array Array
				int size = 3
					[0]
					RegistData data
						PPtr<$EnemyData> m_enemyData
							int m_FileID = 0
							SInt64 m_PathID = 4328673493727646589
						int m_lotteryRate = 100
					[1]
					RegistData data
						PPtr<$EnemyData> m_enemyData
							int m_FileID = 0
							SInt64 m_PathID = -1740270630361088134
						int m_lotteryRate = 100
					[2]
					RegistData data
						PPtr<$EnemyData> m_enemyData
							int m_FileID = 0
							SInt64 m_PathID = 626887216383899541
						int m_lotteryRate = 100
		[1]
		EnemySet data
			RegistData m_registDatas
				Array Array
				int size = 1
					[0]
					RegistData data
						PPtr<$EnemyData> m_enemyData
							int m_FileID = 0
							SInt64 m_PathID = 7274191100170163523
						int m_lotteryRate = 100
EnemySet m_normalSecondaryEnemySets
	Array Array
	int size = 2
		[0]
		EnemySet data
			RegistData m_registDatas
				Array Array
				int size = 3
					[0]
					RegistData data
						PPtr<$EnemyData> m_enemyData
							int m_FileID = 0
							SInt64 m_PathID = -1688427619667034937
						int m_lotteryRate = 90
					[1]
					RegistData data
						PPtr<$EnemyData> m_enemyData
							int m_FileID = 0
							SInt64 m_PathID = 1118056917112126524
						int m_lotteryRate = 90
					[2]
					RegistData data
						PPtr<$EnemyData> m_enemyData
							int m_FileID = 0
							SInt64 m_PathID = -5815816237713006249
						int m_lotteryRate = 20
		[1]
		EnemySet data
			RegistData m_registDatas
				Array Array
				int size = 1
					[0]
					RegistData data
						PPtr<$EnemyData> m_enemyData
							int m_FileID = 0
							SInt64 m_PathID = 7726090920842502669
						int m_lotteryRate = 100
EnemySet m_normalTertiaryEnemySets
	Array Array
	int size = 1
		[0]
		EnemySet data
			RegistData m_registDatas
				Array Array
				int size = 1
					[0]
					RegistData data
						PPtr<$EnemyData> m_enemyData
							int m_FileID = 0
							SInt64 m_PathID = 7726090920842502669
						int m_lotteryRate = 100
EnemySet m_normalQuarternaryEnemySets
	Array Array
	int size = 1
		[0]
		EnemySet data
			RegistData m_registDatas
				Array Array
				int size = 1
					[0]
					RegistData data
						PPtr<$EnemyData> m_enemyData
							int m_FileID = 0
							SInt64 m_PathID = 7726090920842502669
						int m_lotteryRate = 100
EnemySet m_bossPrimaryEnemySet
	RegistData m_registDatas
		Array Array
		int size = 2
			[0]
			RegistData data
				PPtr<$EnemyData> m_enemyData
					int m_FileID = 0
					SInt64 m_PathID = 5797776203071363746
				int m_lotteryRate = 290
			[1]
			RegistData data
				PPtr<$EnemyData> m_enemyData
					int m_FileID = 0
					SInt64 m_PathID = 3899024358795015654
				int m_lotteryRate = 10
EnemySet m_bossSecondaryEnemySet
	RegistData m_registDatas
		Array Array
		int size = 0
EnemySet m_bossTertiaryEnemySet
	RegistData m_registDatas
		Array Array
		int size = 1
			[0]
			RegistData data
				PPtr<$EnemyData> m_enemyData
					int m_FileID = 0
					SInt64 m_PathID = 0
				int m_lotteryRate = 0
EnemySet m_bossQuarternaryEnemySet
	RegistData m_registDatas
		Array Array
		int size = 1
			[0]
			RegistData data
				PPtr<$EnemyData> m_enemyData
					int m_FileID = 0
					SInt64 m_PathID = 0
				int m_lotteryRate = 0
RegistData m_registDatas
	Array Array
	int size = 7
		[0]
		RegistData data
			PPtr<$EnemyData> m_enemyData
				int m_FileID = 0
				SInt64 m_PathID = 0
			int m_min = 4
			int m_max = 4
			UInt8 m_isFixPosition = 0
			UInt8 m_isBoss = 0
			int m_setType = 0
			int m_setIndex = 1
			int m_spawnMode = 0
		[1]
		RegistData data
			PPtr<$EnemyData> m_enemyData
				int m_FileID = 0
				SInt64 m_PathID = 0
			int m_min = 3
			int m_max = 3
			UInt8 m_isFixPosition = 0
			UInt8 m_isBoss = 0
			int m_setType = 0
			int m_setIndex = 1
			int m_spawnMode = 2
		[2]
		RegistData data
			PPtr<$EnemyData> m_enemyData
				int m_FileID = 0
				SInt64 m_PathID = 0
			int m_min = 3
			int m_max = 3
			UInt8 m_isFixPosition = 0
			UInt8 m_isBoss = 0
			int m_setType = 1
			int m_setIndex = 0
			int m_spawnMode = 2
		[3]
		RegistData data
			PPtr<$EnemyData> m_enemyData
				int m_FileID = 0
				SInt64 m_PathID = 0
			int m_min = 1
			int m_max = 1
			UInt8 m_isFixPosition = 0
			UInt8 m_isBoss = 1
			int m_setType = 0
			int m_setIndex = 0
			int m_spawnMode = 0
		[4]
		RegistData data
			PPtr<$EnemyData> m_enemyData
				int m_FileID = 0
				SInt64 m_PathID = 0
			int m_min = 1
			int m_max = 1
			UInt8 m_isFixPosition = 0
			UInt8 m_isBoss = 0
			int m_setType = 1
			int m_setIndex = 1
			int m_spawnMode = 0
		[5]
		RegistData data
			PPtr<$EnemyData> m_enemyData
				int m_FileID = 0
				SInt64 m_PathID = 0
			int m_min = 1
			int m_max = 1
			UInt8 m_isFixPosition = 0
			UInt8 m_isBoss = 0
			int m_setType = 2
			int m_setIndex = 0
			int m_spawnMode = 0
		[6]
		RegistData data
			PPtr<$EnemyData> m_enemyData
				int m_FileID = 0
				SInt64 m_PathID = 0
			int m_min = 1
			int m_max = 1
			UInt8 m_isFixPosition = 0
			UInt8 m_isBoss = 0
			int m_setType = 3
			int m_setIndex = 0
			int m_spawnMode = 0
