PPtr<GameObject> m_GameObject
	int m_FileID = 0
	SInt64 m_PathID = 0
UInt8 m_Enabled = 1
PPtr<MonoScript> m_Script
	int m_FileID = 0
	SInt64 m_PathID = 1088006837878153380
string m_Name = "EnemyPack_mountain1_004"
EnemySet m_normalPrimaryEnemySets
	Array Array
	int size = 3
		[0]
		EnemySet data
			RegistData m_registDatas
				Array Array
				int size = 1
					[0]
					RegistData data
						PPtr<$EnemyData> m_enemyData
							int m_FileID = 0
							SInt64 m_PathID = -5826530846547805400
						int m_lotteryRate = 100
		[1]
		EnemySet data
			RegistData m_registDatas
				Array Array
				int size = 1
					[0]
					RegistData data
						PPtr<$EnemyData> m_enemyData
							int m_FileID = 0
							SInt64 m_PathID = -150697591983129504
						int m_lotteryRate = 100
		[2]
		EnemySet data
			RegistData m_registDatas
				Array Array
				int size = 1
					[0]
					RegistData data
						PPtr<$EnemyData> m_enemyData
							int m_FileID = 0
							SInt64 m_PathID = 2359462377966243087
						int m_lotteryRate = 100
EnemySet m_normalSecondaryEnemySets
	Array Array
	int size = 5
		[0]
		EnemySet data
			RegistData m_registDatas
				Array Array
				int size = 1
					[0]
					RegistData data
						PPtr<$EnemyData> m_enemyData
							int m_FileID = 0
							SInt64 m_PathID = -5826530846547805400
						int m_lotteryRate = 100
		[1]
		EnemySet data
			RegistData m_registDatas
				Array Array
				int size = 1
					[0]
					RegistData data
						PPtr<$EnemyData> m_enemyData
							int m_FileID = 0
							SInt64 m_PathID = 734023425916645398
						int m_lotteryRate = 100
		[2]
		EnemySet data
			RegistData m_registDatas
				Array Array
				int size = 1
					[0]
					RegistData data
						PPtr<$EnemyData> m_enemyData
							int m_FileID = 0
							SInt64 m_PathID = 4535407941197592365
						int m_lotteryRate = 100
		[3]
		EnemySet data
			RegistData m_registDatas
				Array Array
				int size = 2
					[0]
					RegistData data
						PPtr<$EnemyData> m_enemyData
							int m_FileID = 0
							SInt64 m_PathID = 3364516655623248886
						int m_lotteryRate = 100
					[1]
					RegistData data
						PPtr<$EnemyData> m_enemyData
							int m_FileID = 0
							SInt64 m_PathID = 2359462377966243087
						int m_lotteryRate = 100
		[4]
		EnemySet data
			RegistData m_registDatas
				Array Array
				int size = 1
					[0]
					RegistData data
						PPtr<$EnemyData> m_enemyData
							int m_FileID = 0
							SInt64 m_PathID = -150697591983129504
						int m_lotteryRate = 100
EnemySet m_normalTertiaryEnemySets
	Array Array
	int size = 2
		[0]
		EnemySet data
			RegistData m_registDatas
				Array Array
				int size = 2
					[0]
					RegistData data
						PPtr<$EnemyData> m_enemyData
							int m_FileID = 0
							SInt64 m_PathID = -2572603504512471572
						int m_lotteryRate = 190
					[1]
					RegistData data
						PPtr<$EnemyData> m_enemyData
							int m_FileID = 0
							SInt64 m_PathID = -8039197666266583496
						int m_lotteryRate = 10
		[1]
		EnemySet data
			RegistData m_registDatas
				Array Array
				int size = 1
					[0]
					RegistData data
						PPtr<$EnemyData> m_enemyData
							int m_FileID = 0
							SInt64 m_PathID = 4535407941197592365
						int m_lotteryRate = 100
EnemySet m_normalQuarternaryEnemySets
	Array Array
	int size = 1
		[0]
		EnemySet data
			RegistData m_registDatas
				Array Array
				int size = 1
					[0]
					RegistData data
						PPtr<$EnemyData> m_enemyData
							int m_FileID = 0
							SInt64 m_PathID = 0
						int m_lotteryRate = 0
EnemySet m_bossPrimaryEnemySet
	RegistData m_registDatas
		Array Array
		int size = 1
			[0]
			RegistData data
				PPtr<$EnemyData> m_enemyData
					int m_FileID = 0
					SInt64 m_PathID = 3471284489654524090
				int m_lotteryRate = 100
EnemySet m_bossSecondaryEnemySet
	RegistData m_registDatas
		Array Array
		int size = 0
EnemySet m_bossTertiaryEnemySet
	RegistData m_registDatas
		Array Array
		int size = 1
			[0]
			RegistData data
				PPtr<$EnemyData> m_enemyData
					int m_FileID = 0
					SInt64 m_PathID = 0
				int m_lotteryRate = 0
EnemySet m_bossQuarternaryEnemySet
	RegistData m_registDatas
		Array Array
		int size = 1
			[0]
			RegistData data
				PPtr<$EnemyData> m_enemyData
					int m_FileID = 0
					SInt64 m_PathID = 0
				int m_lotteryRate = 0
RegistData m_registDatas
	Array Array
	int size = 10
		[0]
		RegistData data
			PPtr<$EnemyData> m_enemyData
				int m_FileID = 0
				SInt64 m_PathID = 0
			int m_min = 1
			int m_max = 1
			UInt8 m_isFixPosition = 0
			UInt8 m_isBoss = 0
			int m_setType = 0
			int m_setIndex = 2
			int m_spawnMode = 0
		[1]
		RegistData data
			PPtr<$EnemyData> m_enemyData
				int m_FileID = 0
				SInt64 m_PathID = 0
			int m_min = 2
			int m_max = 2
			UInt8 m_isFixPosition = 0
			UInt8 m_isBoss = 0
			int m_setType = 1
			int m_setIndex = 0
			int m_spawnMode = 0
		[2]
		RegistData data
			PPtr<$EnemyData> m_enemyData
				int m_FileID = 0
				SInt64 m_PathID = 0
			int m_min = 2
			int m_max = 2
			UInt8 m_isFixPosition = 0
			UInt8 m_isBoss = 0
			int m_setType = 0
			int m_setIndex = 1
			int m_spawnMode = 2
		[3]
		RegistData data
			PPtr<$EnemyData> m_enemyData
				int m_FileID = 0
				SInt64 m_PathID = 0
			int m_min = 3
			int m_max = 3
			UInt8 m_isFixPosition = 0
			UInt8 m_isBoss = 0
			int m_setType = 1
			int m_setIndex = 4
			int m_spawnMode = 2
		[4]
		RegistData data
			PPtr<$EnemyData> m_enemyData
				int m_FileID = 0
				SInt64 m_PathID = 0
			int m_min = 1
			int m_max = 1
			UInt8 m_isFixPosition = 0
			UInt8 m_isBoss = 0
			int m_setType = 2
			int m_setIndex = 0
			int m_spawnMode = 2
		[5]
		RegistData data
			PPtr<$EnemyData> m_enemyData
				int m_FileID = 0
				SInt64 m_PathID = 0
			int m_min = 4
			int m_max = 4
			UInt8 m_isFixPosition = 0
			UInt8 m_isBoss = 0
			int m_setType = 0
			int m_setIndex = 0
			int m_spawnMode = 2
		[6]
		RegistData data
			PPtr<$EnemyData> m_enemyData
				int m_FileID = 0
				SInt64 m_PathID = 0
			int m_min = 1
			int m_max = 1
			UInt8 m_isFixPosition = 0
			UInt8 m_isBoss = 0
			int m_setType = 1
			int m_setIndex = 3
			int m_spawnMode = 2
		[7]
		RegistData data
			PPtr<$EnemyData> m_enemyData
				int m_FileID = 0
				SInt64 m_PathID = 0
			int m_min = 1
			int m_max = 1
			UInt8 m_isFixPosition = 0
			UInt8 m_isBoss = 1
			int m_setType = 0
			int m_setIndex = 0
			int m_spawnMode = 1
		[8]
		RegistData data
			PPtr<$EnemyData> m_enemyData
				int m_FileID = 0
				SInt64 m_PathID = 0
			int m_min = 1
			int m_max = 1
			UInt8 m_isFixPosition = 0
			UInt8 m_isBoss = 0
			int m_setType = 1
			int m_setIndex = 1
			int m_spawnMode = 1
		[9]
		RegistData data
			PPtr<$EnemyData> m_enemyData
				int m_FileID = 0
				SInt64 m_PathID = 0
			int m_min = 2
			int m_max = 2
			UInt8 m_isFixPosition = 0
			UInt8 m_isBoss = 0
			int m_setType = 2
			int m_setIndex = 1
			int m_spawnMode = 1
