{
    "skillList": [
        {
            "icon": "button_skill_aku_huiuti",
            "jp_name": "huiuti",
            "jp_type": "aku",
            "en_name": "",
            "id": 0
        },
        {
            "icon": "button_skill_aku_kamikudaku",
            "jp_name": "kamikudaku",
            "jp_type": "aku",
            "en_name": "",
            "id": 1
        },
        {
            "icon": "button_skill_aku_odateru",
            "jp_name": "odateru",
            "jp_type": "aku",
            "en_name": "",
            "id": 2
        },
        {
            "icon": "button_skill_aku_tujigiri",
            "jp_name": "tujigiri",
            "jp_type": "aku",
            "en_name": "",
            "id": 3
        },
        {
            "icon": "button_skill_aku_tyouhatu",
            "jp_name": "tyouhatu",
            "jp_type": "aku",
            "en_name": "",
            "id": 4
        },
        {
            "icon": "button_skill_aku_warudakumi",
            "jp_name": "warudakumi",
            "jp_type": "aku",
            "en_name": "",
            "id": 5
        },
        {
            "icon": "button_skill_denki_borutekkaa",
            "jp_name": "borutekkaa",
            "jp_type": "denki",
            "en_name": "",
            "id": 6
        },
        {
            "icon": "button_skill_denki_denkisyokku",
            "jp_name": "denkisyokku",
            "jp_type": "denki",
            "en_name": "",
            "id": 7
        },
        {
            "icon": "button_skill_denki_erekihuiirudo",
            "jp_name": "erekihuiirudo",
            "jp_type": "denki",
            "en_name": "",
            "id": 8
        },
        {
            "icon": "button_skill_denki_erekinetto",
            "jp_name": "erekinetto",
            "jp_type": "denki",
            "en_name": "",
            "id": 9
        },
        {
            "icon": "button_skill_denki_kaminari",
            "jp_name": "kaminari",
            "jp_type": "denki",
            "en_name": "",
            "id": 10
        },
        {
            "icon": "button_skill_denki_kaminaripanti",
            "jp_name": "kaminaripanti",
            "jp_type": "denki",
            "en_name": "",
            "id": 11
        },
        {
            "icon": "button_skill_denki_supaaku",
            "jp_name": "supaaku",
            "jp_type": "denki",
            "en_name": "",
            "id": 12
        },
        {
            "icon": "button_skill_denki_zyuuden",
            "jp_name": "zyuuden",
            "jp_type": "denki",
            "en_name": "",
            "id": 13
        },
        {
            "icon": "button_skill_denki_zyuumanboruto",
            "jp_name": "zyuumanboruto",
            "jp_type": "denki",
            "en_name": "",
            "id": 14
        },
        {
            "icon": "button_skill_doku_benomutorappu",
            "jp_name": "benomutorappu",
            "jp_type": "doku",
            "en_name": "",
            "id": 15
        },
        {
            "icon": "button_skill_doku_dokubari",
            "jp_name": "dokubari",
            "jp_type": "doku",
            "en_name": "",
            "id": 16
        },
        {
            "icon": "button_skill_doku_dokudoku",
            "jp_name": "dokudoku",
            "jp_type": "doku",
            "en_name": "",
            "id": 17
        },
        {
            "icon": "button_skill_doku_dokunokona",
            "jp_name": "dokunokona",
            "jp_type": "doku",
            "en_name": "",
            "id": 18
        },
        {
            "icon": "button_skill_doku_hedorobakudan",
            "jp_name": "hedorobakudan",
            "jp_type": "doku",
            "en_name": "",
            "id": 19
        },
        {
            "icon": "button_skill_doku_sumoggu",
            "jp_name": "sumoggu",
            "jp_type": "doku",
            "en_name": "",
            "id": 20
        },
        {
            "icon": "button_skill_doku_tokeru",
            "jp_name": "tokeru",
            "jp_type": "doku",
            "en_name": "",
            "id": 21
        },
        {
            "icon": "button_skill_dragon_doragondaibu",
            "jp_name": "doragondaibu",
            "jp_type": "dragon",
            "en_name": "",
            "id": 22
        },
        {
            "icon": "button_skill_dragon_doragonkurou",
            "jp_name": "doragonkurou",
            "jp_type": "dragon",
            "en_name": "",
            "id": 23
        },
        {
            "icon": "button_skill_dragon_gekirin",
            "jp_name": "gekirin",
            "jp_type": "dragon",
            "en_name": "",
            "id": 24
        },
        {
            "icon": "button_skill_dragon_ryuunohadou",
            "jp_name": "ryuunohadou",
            "jp_type": "dragon",
            "en_name": "",
            "id": 25
        },
        {
            "icon": "button_skill_dragon_ryuunomai",
            "jp_name": "ryuunomai",
            "jp_type": "dragon",
            "en_name": "",
            "id": 26
        },
        {
            "icon": "button_skill_dragon_ryuuseigun",
            "jp_name": "ryuuseigun",
            "jp_type": "dragon",
            "en_name": "",
            "id": 27
        },
        {
            "icon": "button_skill_dragon_tatumaki",
            "jp_name": "tatumaki",
            "jp_type": "dragon",
            "en_name": "",
            "id": 28
        },
        {
            "icon": "button_skill_esper_bariaa",
            "jp_name": "bariaa",
            "jp_type": "esper",
            "en_name": "",
            "id": 29
        },
        {
            "icon": "button_skill_esper_dowasure",
            "jp_name": "dowasure",
            "jp_type": "esper",
            "en_name": "",
            "id": 30
        },
        {
            "icon": "button_skill_esper_hikarinokabe",
            "jp_name": "hikarinokabe",
            "jp_type": "esper",
            "en_name": "",
            "id": 31
        },
        {
            "icon": "button_skill_esper_kousokuidou",
            "jp_name": "kousokuidou",
            "jp_type": "esper",
            "en_name": "",
            "id": 32
        },
        {
            "icon": "button_skill_esper_saikekouseni",
            "jp_name": "saikekouseni",
            "jp_type": "esper",
            "en_name": "",
            "id": 33
        },
        {
            "icon": "button_skill_esper_saikobureiku",
            "jp_name": "saikobureiku",
            "jp_type": "esper",
            "en_name": "",
            "id": 34
        },
        {
            "icon": "button_skill_esper_saikokattaa",
            "jp_name": "saikokattaa",
            "jp_type": "esper",
            "en_name": "",
            "id": 35
        },
        {
            "icon": "button_skill_esper_saikokinesisu",
            "jp_name": "saikokinesisu",
            "jp_type": "esper",
            "en_name": "",
            "id": 36
        },
        {
            "icon": "button_skill_esper_saiminzyutu",
            "jp_name": "saiminzyutu",
            "jp_type": "esper",
            "en_name": "",
            "id": 37
        },
        {
            "icon": "button_skill_esper_sinennozutuki",
            "jp_name": "sinennozutuki",
            "jp_type": "esper",
            "en_name": "",
            "id": 38
        },
        {
            "icon": "button_skill_esper_terepooto",
            "jp_name": "terepooto",
            "jp_type": "esper",
            "en_name": "",
            "id": 39
        },
        {
            "icon": "button_skill_esper_yoganopoozu",
            "jp_name": "yoganopoozu",
            "jp_type": "esper",
            "en_name": "",
            "id": 40
        },
        {
            "icon": "button_skill_fairy_amaeru",
            "jp_name": "amaeru",
            "jp_type": "fairy",
            "en_name": "",
            "id": 41
        },
        {
            "icon": "button_skill_fairy_doreinkissu",
            "jp_name": "doreinkissu",
            "jp_type": "fairy",
            "en_name": "",
            "id": 42
        },
        {
            "icon": "button_skill_fairy_majikarusyain",
            "jp_name": "majikarusyain",
            "jp_type": "fairy",
            "en_name": "",
            "id": 43
        },
        {
            "icon": "button_skill_fairy_tensinokissu",
            "jp_name": "tensinokissu",
            "jp_type": "fairy",
            "en_name": "",
            "id": 44
        },
        {
            "icon": "button_skill_fairy_zyaretuku",
            "jp_name": "zyaretuku",
            "jp_type": "fairy",
            "en_name": "",
            "id": 45
        },
        {
            "icon": "button_skill_ghost_ayasiihikari",
            "jp_name": "ayasiihikari",
            "jp_type": "ghost",
            "en_name": "",
            "id": 46
        },
        {
            "icon": "button_skill_ghost_odorokasu",
            "jp_name": "odorokasu",
            "jp_type": "ghost",
            "en_name": "",
            "id": 47
        },
        {
            "icon": "button_skill_ghost_sitadenameru",
            "jp_name": "sitadenameru",
            "jp_type": "ghost",
            "en_name": "",
            "id": 48
        },
        {
            "icon": "button_skill_ghost_syadoobooru",
            "jp_name": "syadoobooru",
            "jp_type": "ghost",
            "en_name": "",
            "id": 49
        },
        {
            "icon": "button_skill_hagane_aianteeru",
            "jp_name": "aianteeru",
            "jp_type": "hagane",
            "en_name": "",
            "id": 50
        },
        {
            "icon": "button_skill_hagane_haganenotubasa",
            "jp_name": "haganenotubasa",
            "jp_type": "hagane",
            "en_name": "",
            "id": 51
        },
        {
            "icon": "button_skill_hagane_kinzokuon",
            "jp_name": "kinzokuon",
            "jp_type": "hagane",
            "en_name": "",
            "id": 52
        },
        {
            "icon": "button_skill_hagane_metarukuroo",
            "jp_name": "metarukuroo",
            "jp_type": "hagane",
            "en_name": "",
            "id": 53
        },
        {
            "icon": "button_skill_hagane_rasutaakanon",
            "jp_name": "rasutaakanon",
            "jp_type": "hagane",
            "en_name": "",
            "id": 54
        },
        {
            "icon": "button_skill_hagane_teppeki",
            "jp_name": "teppeki",
            "jp_type": "hagane",
            "en_name": "",
            "id": 55
        },
        {
            "icon": "button_skill_hikou_bouhuu",
            "jp_name": "bouhuu",
            "jp_type": "hikou",
            "en_name": "",
            "id": 56
        },
        {
            "icon": "button_skill_hikou_dorirukutibasi",
            "jp_name": "dorirukutibasi",
            "jp_type": "hikou",
            "en_name": "",
            "id": 57
        },
        {
            "icon": "button_skill_hikou_goddobaado",
            "jp_name": "goddobaado",
            "jp_type": "hikou",
            "en_name": "",
            "id": 58
        },
        {
            "icon": "button_skill_hikou_haneyasume",
            "jp_name": "haneyasume",
            "jp_type": "hikou",
            "en_name": "",
            "id": 59
        },
        {
            "icon": "button_skill_hikou_kazeokosi",
            "jp_name": "kazeokosi",
            "jp_type": "hikou",
            "en_name": "",
            "id": 60
        },
        {
            "icon": "button_skill_hikou_oikaze",
            "jp_name": "oikaze",
            "jp_type": "hikou",
            "en_name": "",
            "id": 61
        },
        {
            "icon": "button_skill_hikou_sorawotobu",
            "jp_name": "sorawotobu",
            "jp_type": "hikou",
            "en_name": "",
            "id": 62
        },
        {
            "icon": "button_skill_hikou_tobihaneru",
            "jp_name": "tobihaneru",
            "jp_type": "hikou",
            "en_name": "",
            "id": 63
        },
        {
            "icon": "button_skill_hikou_tubamegaesi",
            "jp_name": "tubamegaesi",
            "jp_type": "hikou",
            "en_name": "",
            "id": 64
        },
        {
            "icon": "button_skill_honoo_daimonji",
            "jp_name": "daimonji",
            "jp_type": "honoo",
            "en_name": "",
            "id": 65
        },
        {
            "icon": "button_skill_honoo_hinoko",
            "jp_name": "hinoko",
            "jp_type": "honoo",
            "en_name": "",
            "id": 66
        },
        {
            "icon": "button_skill_honoo_honoonopanti",
            "jp_name": "honoonopanti",
            "jp_type": "honoo",
            "en_name": "",
            "id": 67
        },
        {
            "icon": "button_skill_honoo_honoonouzu",
            "jp_name": "honoonouzu",
            "jp_type": "honoo",
            "en_name": "",
            "id": 68
        },
        {
            "icon": "button_skill_honoo_hunen",
            "jp_name": "hunen",
            "jp_type": "honoo",
            "en_name": "",
            "id": 69
        },
        {
            "icon": "button_skill_honoo_hureadoraibu",
            "jp_name": "hureadoraibu",
            "jp_type": "honoo",
            "en_name": "",
            "id": 70
        },
        {
            "icon": "button_skill_honoo_kaenguruma",
            "jp_name": "kaenguruma",
            "jp_type": "honoo",
            "en_name": "",
            "id": 71
        },
        {
            "icon": "button_skill_honoo_kaenhosya",
            "jp_name": "kaenhosya",
            "jp_type": "honoo",
            "en_name": "",
            "id": 72
        },
        {
            "icon": "button_skill_honoo_neppuu",
            "jp_name": "neppuu",
            "jp_type": "honoo",
            "en_name": "",
            "id": 73
        },
        {
            "icon": "button_skill_honoo_nitorotyaazi",
            "jp_name": "nitorotyaazi",
            "jp_type": "honoo",
            "en_name": "",
            "id": 74
        },
        {
            "icon": "button_skill_honoo_onibi",
            "jp_name": "onibi",
            "jp_type": "honoo",
            "en_name": "",
            "id": 75
        },
        {
            "icon": "button_skill_iwa_gansekihuuji",
            "jp_name": "gansekihuuji",
            "jp_type": "iwa",
            "en_name": "",
            "id": 76
        },
        {
            "icon": "button_skill_iwa_iwaotosi",
            "jp_name": "iwaotosi",
            "jp_type": "iwa",
            "en_name": "",
            "id": 77
        },
        {
            "icon": "button_skill_iwa_korogaru",
            "jp_name": "korogaru",
            "jp_type": "iwa",
            "en_name": "",
            "id": 78
        },
        {
            "icon": "button_skill_iwa_rokkuburasuto",
            "jp_name": "rokkuburasuto",
            "jp_type": "iwa",
            "en_name": "",
            "id": 79
        },
        {
            "icon": "button_skill_iwa_rokkukatto",
            "jp_name": "rokkukatto",
            "jp_type": "iwa",
            "en_name": "",
            "id": 80
        },
        {
            "icon": "button_skill_iwa_sunaarasi",
            "jp_name": "sunaarasi",
            "jp_type": "iwa",
            "en_name": "",
            "id": 81
        },
        {
            "icon": "button_skill_iwa_suterusurokku",
            "jp_name": "suterusurokku",
            "jp_type": "iwa",
            "en_name": "",
            "id": 82
        },
        {
            "icon": "button_skill_jimen_anawohoru",
            "jp_name": "anawohoru",
            "jp_type": "jimen",
            "en_name": "",
            "id": 83
        },
        {
            "icon": "button_skill_jimen_dorobakudan",
            "jp_name": "dorobakudan",
            "jp_type": "jimen",
            "en_name": "",
            "id": 84
        },
        {
            "icon": "button_skill_jimen_dorokake",
            "jp_name": "dorokake",
            "jp_type": "jimen",
            "en_name": "",
            "id": 85
        },
        {
            "icon": "button_skill_jimen_honebuumeran",
            "jp_name": "honebuumeran",
            "jp_type": "jimen",
            "en_name": "",
            "id": 86
        },
        {
            "icon": "button_skill_jimen_jisin",
            "jp_name": "jisin",
            "jp_type": "jimen",
            "en_name": "",
            "id": 87
        },
        {
            "icon": "button_skill_jimen_makibisi",
            "jp_name": "makibisi",
            "jp_type": "jimen",
            "en_name": "",
            "id": 88
        },
        {
            "icon": "button_skill_jimen_sunaatume",
            "jp_name": "sunaatume",
            "jp_type": "jimen",
            "en_name": "",
            "id": 89
        },
        {
            "icon": "button_skill_kakutou_bakuretupanti",
            "jp_name": "bakuretupanti",
            "jp_type": "kakutou",
            "en_name": "",
            "id": 90
        },
        {
            "icon": "button_skill_kakutou_birudoappu",
            "jp_name": "birudoappu",
            "jp_type": "kakutou",
            "en_name": "",
            "id": 91
        },
        {
            "icon": "button_skill_kakutou_doreinpanti",
            "jp_name": "doreinpanti",
            "jp_type": "kakutou",
            "en_name": "",
            "id": 92
        },
        {
            "icon": "button_skill_kakutou_guroupanti",
            "jp_name": "guroupanti",
            "jp_type": "kakutou",
            "en_name": "",
            "id": 93
        },
        {
            "icon": "button_skill_kakutou_infaito",
            "jp_name": "infaito",
            "jp_type": "kakutou",
            "en_name": "",
            "id": 94
        },
        {
            "icon": "button_skill_kakutou_iwakudaki",
            "jp_name": "iwakudaki",
            "jp_type": "kakutou",
            "en_name": "",
            "id": 95
        },
        {
            "icon": "button_skill_kakutou_kurosutyoppu",
            "jp_name": "kurosutyoppu",
            "jp_type": "kakutou",
            "en_name": "",
            "id": 96
        },
        {
            "icon": "button_skill_kakutou_mawasigeri",
            "jp_name": "mawasigeri",
            "jp_type": "kakutou",
            "en_name": "",
            "id": 97
        },
        {
            "icon": "button_skill_kakutou_tobihizageri",
            "jp_name": "tobihizageri",
            "jp_type": "kakutou",
            "en_name": "",
            "id": 98
        },
        {
            "icon": "button_skill_kakutou_zigokuguruma",
            "jp_name": "zigokuguruma",
            "jp_type": "kakutou",
            "en_name": "",
            "id": 99
        },
        {
            "icon": "button_skill_koori_hubuki",
            "jp_name": "hubuki",
            "jp_type": "koori",
            "en_name": "",
            "id": 100
        },
        {
            "icon": "button_skill_koori_kogoerukaze",
            "jp_name": "kogoerukaze",
            "jp_type": "koori",
            "en_name": "",
            "id": 101
        },
        {
            "icon": "button_skill_koori_oororabeeru",
            "jp_name": "oororabeeru",
            "jp_type": "koori",
            "en_name": "",
            "id": 102
        },
        {
            "icon": "button_skill_koori_reitoubiimu",
            "jp_name": "reitoubiimu",
            "jp_type": "koori",
            "en_name": "",
            "id": 103
        },
        {
            "icon": "button_skill_koori_reitoupanti",
            "jp_name": "reitoupanti",
            "jp_type": "koori",
            "en_name": "",
            "id": 104
        },
        {
            "icon": "button_skill_koori_turaraotosi",
            "jp_name": "turaraotosi",
            "jp_type": "koori",
            "en_name": "",
            "id": 105
        },
        {
            "icon": "button_skill_kusa_hanabiranomai",
            "jp_name": "hanabiranomai",
            "jp_type": "kusa",
            "en_name": "",
            "id": 106
        },
        {
            "icon": "button_skill_kusa_happakattar",
            "jp_name": "happakattar",
            "jp_type": "kusa",
            "en_name": "",
            "id": 107
        },
        {
            "icon": "button_skill_kusa_kinokonohousi",
            "jp_name": "kinokonohousi",
            "jp_type": "kusa",
            "en_name": "",
            "id": 108
        },
        {
            "icon": "button_skill_kusa_kougousei",
            "jp_name": "kougousei",
            "jp_type": "kusa",
            "en_name": "",
            "id": 109
        },
        {
            "icon": "button_skill_kusa_megadorein",
            "jp_name": "megadorein",
            "jp_type": "kusa",
            "en_name": "",
            "id": 110
        },
        {
            "icon": "button_skill_kusa_shibiregona",
            "jp_name": "shibiregona",
            "jp_type": "kusa",
            "en_name": "",
            "id": 111
        },
        {
            "icon": "button_skill_kusa_sooraabiimu",
            "jp_name": "sooraabiimu",
            "jp_type": "kusa",
            "en_name": "",
            "id": 112
        },
        {
            "icon": "button_skill_kusa_tanemasingan",
            "jp_name": "tanemasingan",
            "jp_type": "kusa",
            "en_name": "",
            "id": 113
        },
        {
            "icon": "button_skill_kusa_turunomuti",
            "jp_name": "turunomuti",
            "jp_type": "kusa",
            "en_name": "",
            "id": 114
        },
        {
            "icon": "button_skill_kusa_yadoriginotane",
            "jp_name": "yadoriginotane",
            "jp_type": "kusa",
            "en_name": "",
            "id": 115
        },
        {
            "icon": "button_skill_mizu_akuaringu",
            "jp_name": "akuaringu",
            "jp_type": "mizu",
            "en_name": "",
            "id": 116
        },
        {
            "icon": "button_skill_mizu_akuazyetto",
            "jp_name": "akuazyetto",
            "jp_type": "mizu",
            "en_name": "",
            "id": 117
        },
        {
            "icon": "button_skill_mizu_awa",
            "jp_name": "awa",
            "jp_type": "mizu",
            "en_name": "",
            "id": 118
        },
        {
            "icon": "button_skill_mizu_haidoroponpu",
            "jp_name": "haidoroponpu",
            "jp_type": "mizu",
            "en_name": "",
            "id": 119
        },
        {
            "icon": "button_skill_mizu_karanikomoru",
            "jp_name": "karanikomoru",
            "jp_type": "mizu",
            "en_name": "",
            "id": 120
        },
        {
            "icon": "button_skill_mizu_naminori",
            "jp_name": "naminori",
            "jp_type": "mizu",
            "en_name": "",
            "id": 121
        },
        {
            "icon": "button_skill_mizu_takinobori",
            "jp_name": "takinobori",
            "jp_type": "mizu",
            "en_name": "",
            "id": 122
        },
        {
            "icon": "button_skill_mizu_uzusio",
            "jp_name": "uzusio",
            "jp_type": "mizu",
            "en_name": "",
            "id": 123
        },
        {
            "icon": "button_skill_mushi_ginironokaze",
            "jp_name": "ginironokaze",
            "jp_type": "mushi",
            "en_name": "",
            "id": 124
        },
        {
            "icon": "button_skill_mushi_ikarinokona",
            "jp_name": "ikarinokona",
            "jp_type": "mushi",
            "en_name": "",
            "id": 125
        },
        {
            "icon": "button_skill_mushi_itowohaku",
            "jp_name": "itowohaku",
            "jp_type": "mushi",
            "en_name": "",
            "id": 126
        },
        {
            "icon": "button_skill_mushi_kyuuketu",
            "jp_name": "kyuuketu",
            "jp_type": "mushi",
            "en_name": "",
            "id": 127
        },
        {
            "icon": "button_skill_mushi_megahoon",
            "jp_name": "megahoon",
            "jp_type": "mushi",
            "en_name": "",
            "id": 128
        },
        {
            "icon": "button_skill_mushi_misairubari",
            "jp_name": "misairubari",
            "jp_type": "mushi",
            "en_name": "",
            "id": 129
        },
        {
            "icon": "button_skill_mushi_tobikakaru",
            "jp_name": "tobikakaru",
            "jp_type": "mushi",
            "en_name": "",
            "id": 130
        },
        {
            "icon": "button_skill_mushi_tonbogaeri",
            "jp_name": "tonbogaeri",
            "jp_type": "mushi",
            "en_name": "",
            "id": 131
        },
        {
            "icon": "button_skill_normal_daibakuhatu",
            "jp_name": "daibakuhatu",
            "jp_type": "normal",
            "en_name": "",
            "id": 132
        },
        {
            "icon": "button_skill_normal_gigainpakuto",
            "jp_name": "gigainpakuto",
            "jp_type": "normal",
            "en_name": "",
            "id": 133
        },
        {
            "icon": "button_skill_normal_hakaikousen",
            "jp_name": "hakaikousen",
            "jp_type": "normal",
            "en_name": "",
            "id": 134
        },
        {
            "icon": "button_skill_normal_haneru",
            "jp_name": "haneru",
            "jp_type": "normal",
            "en_name": "",
            "id": 135
        },
        {
            "icon": "button_skill_normal_haradaiko",
            "jp_name": "haradaiko",
            "jp_type": "normal",
            "en_name": "",
            "id": 136
        },
        {
            "icon": "button_skill_normal_hensin",
            "jp_name": "hensin",
            "jp_type": "normal",
            "en_name": "",
            "id": 137
        },
        {
            "icon": "button_skill_normal_hikkaku",
            "jp_name": "hikkaku",
            "jp_type": "normal",
            "en_name": "",
            "id": 138
        },
        {
            "icon": "button_skill_normal_hoeru",
            "jp_name": "hoeru",
            "jp_type": "normal",
            "en_name": "",
            "id": 139
        },
        {
            "icon": "button_skill_normal_hukitobasi",
            "jp_name": "hukitobasi",
            "jp_type": "normal",
            "en_name": "",
            "id": 140
        },
        {
            "icon": "button_skill_normal_humituke",
            "jp_name": "humituke",
            "jp_type": "normal",
            "en_name": "",
            "id": 141
        },
        {
            "icon": "button_skill_normal_hurassyu",
            "jp_name": "hurassyu",
            "jp_type": "normal",
            "en_name": "",
            "id": 142
        },
        {
            "icon": "button_skill_normal_huruitateru",
            "jp_name": "huruitateru",
            "jp_type": "normal",
            "en_name": "",
            "id": 143
        },
        {
            "icon": "button_skill_normal_jibaku",
            "jp_name": "jibaku",
            "jp_type": "normal",
            "en_name": "",
            "id": 144
        },
        {
            "icon": "button_skill_normal_jitabata",
            "jp_name": "jitabata",
            "jp_type": "normal",
            "en_name": "",
            "id": 145
        },
        {
            "icon": "button_skill_normal_katakunaru",
            "jp_name": "katakunaru",
            "jp_type": "normal",
            "en_name": "",
            "id": 146
        },
        {
            "icon": "button_skill_normal_kiaidame",
            "jp_name": "kiaidame",
            "jp_type": "normal",
            "en_name": "",
            "id": 147
        },
        {
            "icon": "button_skill_normal_konoyubitomare",
            "jp_name": "konoyubitomare",
            "jp_type": "normal",
            "en_name": "",
            "id": 148
        },
        {
            "icon": "button_skill_normal_megatonpanti",
            "jp_name": "megatonpanti",
            "jp_type": "normal",
            "en_name": "",
            "id": 149
        },
        {
            "icon": "button_skill_normal_midarehikkaki",
            "jp_name": "midarehikkaki",
            "jp_type": "normal",
            "en_name": "",
            "id": 150
        },
        {
            "icon": "button_skill_normal_migawari",
            "jp_name": "migawari",
            "jp_type": "normal",
            "en_name": "",
            "id": 151
        },
        {
            "icon": "button_skill_normal_nakigoe",
            "jp_name": "nakigoe",
            "jp_type": "normal",
            "en_name": "",
            "id": 152
        },
        {
            "icon": "button_skill_normal_nemuru",
            "jp_name": "nemuru",
            "jp_type": "normal",
            "en_name": "",
            "id": 153
        },
        {
            "icon": "button_skill_normal_niramitukeru",
            "jp_name": "niramitukeru",
            "jp_type": "normal",
            "en_name": "",
            "id": 154
        },
        {
            "icon": "button_skill_normal_renzokupanti",
            "jp_name": "renzokupanti",
            "jp_type": "normal",
            "en_name": "",
            "id": 155
        },
        {
            "icon": "button_skill_normal_sinsoku",
            "jp_name": "sinsoku",
            "jp_type": "normal",
            "en_name": "",
            "id": 156
        },
        {
            "icon": "button_skill_normal_taiatari",
            "jp_name": "taiatari",
            "jp_type": "normal",
            "en_name": "",
            "id": 157
        },
        {
            "icon": "button_skill_normal_tamagobakudan",
            "jp_name": "tamagobakudan",
            "jp_type": "normal",
            "en_name": "",
            "id": 158
        },
        {
            "icon": "button_skill_normal_tamagoumi",
            "jp_name": "tamagoumi",
            "jp_type": "normal",
            "en_name": "",
            "id": 159
        },
        {
            "icon": "button_skill_normal_tatakitukeru",
            "jp_name": "tatakitukeru",
            "jp_type": "normal",
            "en_name": "",
            "id": 160
        },
        {
            "icon": "button_skill_normal_toraiatakku",
            "jp_name": "toraiatakku",
            "jp_type": "normal",
            "en_name": "",
            "id": 161
        },
        {
            "icon": "button_skill_normal_tossin",
            "jp_name": "tossin",
            "jp_type": "normal",
            "en_name": "",
            "id": 162
        },
        {
            "icon": "button_skill_normal_turuginomai",
            "jp_name": "turuginomai",
            "jp_type": "normal",
            "en_name": "",
            "id": 163
        },
        {
            "icon": "button_skill_normal_tyouonpa",
            "jp_name": "tyouonpa",
            "jp_type": "normal",
            "en_name": "",
            "id": 164
        },
        {
            "icon": "button_skill_normal_utau",
            "jp_name": "utau",
            "jp_type": "normal",
            "en_name": "",
            "id": 165
        },
        {
            "icon": "button_skill_normal_zikosaisei",
            "jp_name": "zikosaisei",
            "jp_type": "normal",
            "en_name": "",
            "id": 166
        }
    ]
}
